<?xml version="1.0" encoding="UTF-8"?>
<svg width="18px" height="18px" viewBox="0 0 18 18" version="1.1" xmlns="http://www.w3.org/2000/svg" xmlns:xlink="http://www.w3.org/1999/xlink">
    <!-- Generator: sketchtool 48.2 (47327) - http://www.bohemiancoding.com/sketch -->
    <title>DB021746-8D48-4361-9077-705A50FFD3A7</title>
    <desc>Created with sketchtool.</desc>
    <defs>
        <path d="M10.8211874,3.00000198 L13.1788121,3.00000198 C13.4249151,3.00000198 13.6605282,3.17651745 13.7293458,3.41289268 L14.232007,5.17220691 C14.5850571,5.2881541 14.9239178,5.42503305 15.2492976,5.59109125 L16.8470517,4.70545008 C17.0639907,4.5835284 17.3594464,4.62466428 17.5352284,4.80119507 L19.192804,6.46476431 C19.3663418,6.63905849 19.4074815,6.93152114 19.288549,7.14694737 L18.4029078,8.75067599 C18.5674743,9.07304938 18.7065995,9.41191005 18.8217922,9.76197289 L20.5811064,10.2646341 C20.8212176,10.3319428 21.0014882,10.5720521 20.9999907,10.8211423 L20.9999907,13.178767 C20.9992439,13.4263635 20.8189753,13.6619805 20.5811064,13.7293007 L18.8277858,14.2259874 C18.7118386,14.5782907 18.5682173,14.918645 18.4029078,15.2432779 L19.288549,16.8470066 C19.4074834,17.0624328 19.3663418,17.3549031 19.192804,17.5291896 L17.5352284,19.1927589 C17.3594406,19.3692897 17.0639716,19.4104294 16.8470517,19.2885039 L15.2492976,18.4028627 C14.9239178,18.5689228 14.5850763,18.7117992 14.232007,18.8277407 L13.7293458,20.5810614 C13.662018,20.8189284 13.4264087,20.9977017 13.1788121,20.9999458 L10.8211874,20.9999458 C10.5735909,20.999199 10.337974,20.8189303 10.2706537,20.5810614 L9.76799253,18.8277407 C9.41494245,18.7117935 9.07608177,18.5689209 8.75070199,18.4028627 L7.15294786,19.2885039 C6.93600886,19.4104255 6.64055322,19.3692897 6.46477116,19.1927589 L4.80719556,17.5291896 C4.63365776,17.3548954 4.59251805,17.0624328 4.71145056,16.8470066 L5.59709174,15.2432779 C5.43177844,14.918645 5.2881552,14.5782907 5.17221376,14.2259874 L3.41889355,13.7293007 C3.18102661,13.6619728 3.00150513,13.4263635 3.00000921,13.178767 L3.00000921,10.8211423 C2.99851559,10.5720713 3.17878426,10.3319543 3.41889355,10.2646341 L5.1782074,9.76197289 C5.29340777,9.41191005 5.43252908,9.07306853 5.59709174,8.75067599 L4.71145056,7.14694737 C4.59251613,6.93152114 4.63365776,6.63905083 4.80719556,6.46476431 L6.46477116,4.80119507 C6.64055896,4.62466428 6.93602801,4.58352457 7.15294786,4.70545008 L8.75070199,5.59109125 C9.07608177,5.42503114 9.4149233,5.28814835 9.76799253,5.17220691 L10.2706537,3.41289268 C10.3342284,3.21094735 10.5706036,2.99925325 10.8211874,3.00000198 Z M11.2520399,4.14894188 L10.7912767,5.77063226 C10.7389042,5.96137544 10.5810762,6.11921297 10.390335,6.17157399 C9.90638234,6.30473613 9.45010001,6.4954793 9.01999435,6.74006946 C8.85020019,6.83805871 8.62953479,6.84030297 8.45749253,6.74605352 L6.97344515,5.92025296 L5.92025024,6.97344787 L6.74605079,8.45152076 C6.84179579,8.62206174 6.84179579,8.84347778 6.74605079,9.01402259 C6.50146064,9.44412824 6.30472574,9.90640421 6.17158084,10.3903569 C6.11997429,10.5796064 5.96513166,10.7366933 5.77663275,10.7912986 L4.14896827,11.2520618 L4.14896827,12.7420836 L5.77663275,13.2088405 C5.96364187,13.2619407 6.11847301,13.4167871 6.17158084,13.6037886 C6.30472383,14.0877412 6.50146064,14.5500172 6.74605079,14.9801228 C6.84179579,15.1506638 6.84179579,15.3720799 6.74605079,15.5426247 L5.92025024,17.026672 L6.97344515,18.0738925 L8.45749253,17.2480919 C8.62952713,17.1538425 8.85019636,17.1560867 9.01999435,17.254076 C9.45008086,17.4986661 9.90638234,17.695401 10.390335,17.8285459 C10.5795845,17.8801525 10.7366714,18.0349951 10.7912767,18.223494 L11.2520399,19.8511589 L12.7480554,19.8511589 L13.2088186,18.223494 C13.2634316,18.0349913 13.4205146,17.8801582 13.6097603,17.8285459 C14.093713,17.6954029 14.5499953,17.4986661 14.980101,17.254076 C15.1498951,17.1560867 15.3705605,17.1538425 15.5426028,17.2480919 L17.0266502,18.0738925 L18.0798451,17.026672 L17.2540445,15.5426247 C17.1582995,15.3720837 17.1582995,15.1506676 17.2540445,14.9801228 C17.4986347,14.5500172 17.6953696,14.0877412 17.8285145,13.6037886 C17.8816146,13.4167795 18.0364611,13.2619483 18.2234626,13.2088405 L19.8511274,12.7420836 L19.8511274,11.2520618 L18.2234626,10.7912986 C18.0349598,10.7366856 17.8801268,10.5796026 17.8285145,10.3903569 C17.6953715,9.90640421 17.4986347,9.44412824 17.2540445,9.01402259 C17.1582995,8.84348161 17.1582995,8.62206557 17.2540445,8.45152076 L18.0798451,6.97344787 L17.0266502,5.92025296 L15.5426028,6.74605352 C15.3705682,6.84030297 15.149899,6.83805871 14.980101,6.74006946 C14.5500145,6.49546015 14.093713,6.30471889 13.6097603,6.17157399 C13.4190172,6.11920148 13.2611796,5.96137352 13.2088186,5.77063226 L12.7480554,4.14894188 L11.2520399,4.14894188 Z M12.0000381,7.78725158 C14.3196137,7.78725158 16.2128177,9.68045561 16.2128177,12.0000312 C16.2128177,14.3196069 14.3196137,16.2128109 12.0000381,16.2128109 C9.68046246,16.2128109 7.78725843,14.3196069 7.78725843,12.0000312 C7.78725843,9.68045561 9.68051991,7.78725158 12.0000381,7.78725158 Z M12.0000381,8.93619149 C10.3013113,8.93619149 8.93619834,10.3013044 8.93619834,12.0000312 C8.93619834,13.698758 10.3013113,15.063871 12.0000381,15.063871 C13.6987649,15.063871 15.0638778,13.698758 15.0638778,12.0000312 C15.0638778,10.3013044 13.6987649,8.93619149 12.0000381,8.93619149 Z" id="path-1"></path>
    </defs>
    <g id="MENU/Home" stroke="none" stroke-width="1" fill="none" fill-rule="evenodd" transform="translate(-279.000000, -13.000000)">
        <rect id="Rectangle-2-Copy-2" fill="#FFFFFF" x="0" y="0" width="320" height="56"></rect>
        <text id="AJUSTES" opacity="0.6" font-family="Roboto-Medium, Roboto" font-size="8" font-weight="400" line-spacing="24" fill="#424B4B">
            <tspan x="270.992188" y="37">AJUSTES</tspan>
        </text>
        <g id="ICON/Menu/Config" opacity="0.6" transform="translate(276.000000, 10.000000)">
            <mask id="mask-2" fill="white">
                <use xlink:href="#path-1"></use>
            </mask>
            <use id="Combined-Shape" fill="#000000" fill-rule="evenodd" xlink:href="#path-1"></use>
            <g id="COLOR/Grey-2" mask="url(#mask-2)" fill="#97A4A4" fill-rule="evenodd">
                <rect id="Rectangle-6" x="0" y="0" width="24" height="24"></rect>
            </g>
        </g>
    </g>
</svg>