<?xml version="1.0" encoding="UTF-8"?>
<svg width="137px" height="40px" viewBox="0 0 137 40" version="1.1" xmlns="http://www.w3.org/2000/svg" xmlns:xlink="http://www.w3.org/1999/xlink">
    <!-- Generator: Sketch 48.2 (47327) - http://www.bohemiancoding.com/sketch -->
    <title>Logo</title>
    <desc>Created with Sketch.</desc>
    <defs>
        <polygon id="path-1" points="0.386855374 0.654736657 18.7003333 0.654736657 18.7003333 22.6666667 0.386855374 22.6666667"></polygon>
        <polygon id="path-3" points="0 0.0900475574 14.4630667 0.0900475574 14.4630667 14.5828483 0 14.5828483"></polygon>
        <polygon id="path-5" points="0.220266667 0.605333333 4.94226667 0.605333333 4.94226667 10.1964 0.220266667 10.1964"></polygon>
        <polygon id="path-7" points="0.543133333 0.525466667 4.23933333 0.525466667 4.23933333 4.22413333 0.543133333 4.22413333"></polygon>
    </defs>
    <g id="12.0-Relatório---Pré-plantio" stroke="none" stroke-width="1" fill="none" fill-rule="evenodd" transform="translate(-92.000000, -104.000000)">
        <g id="Topo" transform="translate(16.000000, 88.000000)">
            <g id="Logo" transform="translate(76.000000, 16.000000)">
                <path d="M119.0688,28.0277333 L119.781467,27.8810667 C120.0548,28.3597333 120.2688,28.5084 120.721467,28.7990667 C121.228133,29.1424 121.798133,29.3864 122.3668,29.5444 C122.566133,29.5970667 124.154133,29.9317333 124.1808,29.8337333 C125.086133,29.9957333 125.992133,29.9004 126.908133,29.7917333 C127.6248,29.7164 128.4268,29.5724 128.901467,28.9884 C129.128133,28.7077333 129.2108,28.2910667 129.0208,27.8697333 C128.791467,27.3750667 128.393467,27.1190667 127.935467,26.9904 C127.038133,26.7457333 126.165467,26.6537333 125.285467,26.5104 C124.4188,26.3664 123.369467,26.1924 122.636133,25.9124 C122.560133,25.8850667 122.0108,25.7110667 122.0108,25.6904 C122.0108,25.6177333 121.667467,25.5104 121.600133,25.4737333 C119.708133,24.2790667 119.161467,21.5237333 120.733467,19.6570667 C121.381467,18.8910667 122.566133,18.3430667 123.569467,18.1277333 C125.514133,17.7304 127.413467,17.7710667 129.3288,18.0370667 C129.5688,18.0604 131.720133,18.4644 131.856133,18.7164 L132.253467,21.4537333 L131.496133,21.6157333 C131.390133,21.5370667 131.2728,21.4017333 131.178133,21.3377333 C131.0048,21.1804 130.364133,20.8564 130.231467,20.7904 C129.608133,20.5784 129.356133,20.4697333 128.541467,20.3384 C127.232133,20.1770667 124.4188,20.1904 124.232133,21.4717333 C124.0208,23.0357333 125.8828,23.0764 126.8908,23.2370667 C127.6408,23.3590667 128.393467,23.4904 129.128133,23.6350667 C129.489467,23.7130667 129.818133,23.7844 130.149467,23.8924 C131.2968,24.2090667 132.3508,24.9697333 132.892133,26.0070667 C134.359467,28.9037333 132.3188,31.3804 129.695467,31.8837333 C129.3288,31.9804 128.556133,32.1664 128.1848,32.2157333 C125.750133,32.6024 122.743467,32.3650667 120.094133,31.6190667 C120.014133,31.5957333 119.563467,31.4604 119.548133,31.4450667 L119.0688,28.0277333 Z" id="Fill-1" fill="#FFFFFF"></path>
                <path d="M33.0740667,31.9027333 C33.2320667,31.5527333 33.3694,30.9440667 33.4094,30.2640667 L33.4207333,19.2160667 C33.4607333,18.8994 33.2887333,17.9434 33.0360667,17.7967333 L37.5834,17.7967333 L37.5707333,20.1547333 C38.2900667,19.2160667 39.9140667,17.9320667 42.3307333,17.6774 C42.7574,17.6367333 43.2140667,17.5827333 43.6080667,17.6594 L43.7840667,21.6820667 L43.1560667,21.9887333 C43.0400667,21.9340667 42.9187333,21.6140667 42.6240667,21.4014 C41.4807333,20.6027333 39.8040667,21.0480667 38.8347333,21.9420667 C38.1000667,22.7067333 37.7314,23.6654 37.6514,24.8580667 L37.6060667,30.2794 C37.5180667,30.4740667 37.8494,31.7147333 37.9047333,31.9167333 L33.0740667,31.9027333 Z" id="Fill-3" fill="#FFFFFF"></path>
                <path d="M92.4242667,31.9027333 C92.5836,31.5527333 92.6989333,30.9440667 92.7529333,30.2640667 L92.7722667,19.2160667 C92.7942667,18.8994 92.6396,17.9434 92.3809333,17.7967333 L96.9309333,17.7967333 L96.9196,20.1547333 C97.6349333,19.2160667 99.2562667,17.9320667 101.678267,17.6774 C102.0936,17.6367333 102.562267,17.5827333 102.960933,17.6594 L103.120267,21.6820667 L102.504267,21.9887333 C102.386267,21.9340667 102.256267,21.6140667 101.972267,21.4014 C100.832267,20.6027333 99.1429333,21.0480667 98.1816,21.9420667 C97.4496,22.7067333 97.0809333,23.6654 96.9849333,24.8580667 L96.9596,30.2794 C96.8682667,30.4740667 97.2009333,31.7147333 97.2549333,31.9167333 L92.4242667,31.9027333 Z" id="Fill-5" fill="#FFFFFF"></path>
                <path d="M76.0580667,25.2744667 C75.8167333,22.0718 78.2140667,18.9904667 81.0900667,18.0238 C83.4934,17.1998 86.4987333,17.5844667 88.5654,19.0864667 C89.0300667,19.4324667 89.4007333,19.7791333 89.7887333,20.2278 C91.0787333,21.7924667 91.5807333,23.8944667 91.3140667,25.9244667 L81.2614,25.9131333 L82.7114,23.5278 L87.2094,23.5278 C87.2094,21.7604667 86.2000667,20.4698 84.5820667,20.1238 C82.6440667,19.7304667 80.9300667,21.0924667 80.3554,23.0498 C79.3827333,26.4591333 81.4314,28.6871333 84.2280667,29.5724667 C85.7067333,29.9204667 87.7287333,29.8911333 89.3767333,29.7918 C89.9774,29.7838 90.3080667,29.7171333 90.3734,29.7171333 L88.9120667,32.0144667 C86.8727333,32.3398 82.9094,32.3504667 81.9120667,31.9644667 C78.6787333,31.2438 76.2080667,28.5611333 76.0580667,24.9578 L76.0580667,25.2744667 Z" id="Fill-7" fill="#FFFFFF"></path>
                <path d="M103.083467,25.2744667 C102.839467,22.0718 105.231467,18.9904667 108.1088,18.0238 C110.5128,17.1998 113.525467,17.5844667 115.5828,19.0864667 C116.0528,19.4324667 116.424133,19.7791333 116.809467,20.2278 C118.099467,21.7924667 118.609467,23.8944667 118.3388,25.9244667 L108.2828,25.9131333 L109.7328,23.5278 L114.225467,23.5278 C114.225467,21.7604667 113.2008,20.4698 111.603467,20.1238 C109.6548,19.7304667 107.938133,21.0924667 107.3748,23.0498 C106.405467,26.4591333 108.455467,28.6871333 111.2468,29.5724667 C112.7308,29.9204667 114.7448,29.8911333 116.381467,29.7918 C116.991467,29.7838 117.3268,29.7171333 117.397467,29.7171333 L115.9328,32.0144667 C113.8968,32.3398 109.934133,32.3504667 108.933467,31.9644667 C105.7008,31.2438 103.2288,28.5611333 103.083467,24.9578 L103.083467,25.2744667 Z" id="Fill-9" fill="#FFFFFF"></path>
                <path d="M61.3324667,24.9906 C61.1978,23.4539333 62.0331333,21.5112667 63.0584667,20.4212667 C64.3664667,19.0212667 66.3171333,17.9432667 68.2111333,17.6592667 C70.2638,17.3719333 72.2944667,17.5826 74.3038,17.9959333 C74.6251333,18.0599333 74.7524667,18.0852667 74.7924667,18.1699333 L75.1564667,21.6552667 L74.3298,21.7319333 C74.2464667,21.6926 74.1011333,21.5252667 74.0224667,21.4512667 C72.4531333,20.2052667 70.2191333,19.6312667 68.3198,20.5012667 C65.3351333,21.9866 64.8564667,25.5099333 66.6424667,27.8332667 C67.1438,28.4826 68.1024667,29.0639333 68.9264667,29.2799333 C69.9798,29.5586 70.9584667,29.6479333 72.0804667,29.7326 C73.2691333,29.8126 74.4991333,29.6392667 75.7278,29.6392667 L73.9718,32.0052667 C73.8651333,32.0606 73.7131333,32.0839333 73.4911333,32.1086 C70.3891333,32.3392667 66.7944667,32.2592667 64.2318,30.3439333 C62.5044667,29.0639333 61.4924667,27.3112667 61.3324667,24.9906" id="Fill-11" fill="#FFFFFF"></path>
                <g id="Group-15" transform="translate(14.000000, 16.728000)">
                    <mask id="mask-2" fill="white">
                        <use xlink:href="#path-1"></use>
                    </mask>
                    <g id="Clip-14"></g>
                    <path d="M0.449666667,17.3284 L4.147,14.9457333 C4.49366667,15.1977333 4.41033333,15.2224 4.75833333,15.3030667 C2.41566667,17.9670667 5.48966667,19.7850667 7.82166667,19.9470667 C9.30366667,20.0377333 9.90966667,20.0310667 10.9216667,19.8424 C11.879,19.6650667 13.4476667,19.2590667 13.0763333,17.9117333 C12.701,16.8064 11.1723333,16.7297333 10.2323333,16.5797333 C9.63833333,16.4884 9.00033333,16.3810667 8.453,16.2204 C7.78166667,16.0330667 6.96766667,15.7057333 6.41966667,15.3324 C5.43833333,14.6524 4.79833333,13.6164 5.19633333,12.3364 C5.55766667,11.1417333 6.65233333,10.4757333 7.621,10.0777333 C8.16766667,9.80973333 8.737,9.55773333 9.29366667,9.33106667 C9.56166667,9.22573333 10.903,8.49106667 11.1196667,8.34506667 C11.585,8.0244 13.2576667,6.7264 12.051,4.6744 C11.387,3.5404 9.21766667,3.13306667 8.35033333,3.3664 C8.001,3.40773333 7.63433333,3.5404 7.21966667,3.73306667 C6.14233333,4.40573333 5.341,5.13573333 5.74033333,6.69173333 C6.015,7.44306667 6.14233333,7.63773333 6.43766667,7.9624 C6.75433333,8.25106667 7.32366667,8.66773333 7.66433333,8.74506667 C7.829,8.8024 8.20566667,8.87573333 8.26166667,8.88973333 L5.54433333,10.5284 C4.68366667,10.3704 3.82566667,9.71573333 3.20566667,9.15706667 C2.95366667,8.87573333 2.683,8.60773333 2.49433333,8.25106667 C1.72566667,6.90706667 1.71233333,5.0044 2.485,3.6664 C3.60433333,1.72306667 5.969,0.8924 8.13433333,0.695066667 C8.57633333,0.6604 9.05566667,0.681733333 9.469,0.6604 C10.5183333,0.6184 11.585,0.819066667 12.609,0.963066667 C14.2703333,1.20573333 16.2696667,1.33173333 17.8763333,0.8264 C18.1063333,0.745733333 18.1563333,0.723066667 18.253,0.695066667 L18.7003333,0.8424 C18.4343333,1.33173333 17.9163333,1.6924 17.4896667,2.05306667 C16.3203333,2.96973333 15.0576667,3.1424 13.8043333,2.71973333 L13.7316667,2.86373333 C14.1376667,3.11573333 14.471,3.22706667 15.1363333,3.84973333 C16.4396667,5.24573333 16.695,7.01706667 15.5783333,8.60773333 C14.7103333,9.83973333 13.3943333,10.2630667 12.0276667,10.7137333 C11.715,10.8210667 11.4603333,10.8850667 11.055,10.9977333 C10.1863333,11.2124 9.24033333,11.3270667 9.17833333,12.0710667 C9.08233333,13.2130667 11.3723333,13.2870667 12.127,13.5217333 C13.0216667,13.7370667 14.0563333,13.9617333 14.8683333,14.3277333 C15.2683333,14.5590667 15.7736667,14.9570667 16.0703333,15.2870667 C17.1603333,16.5957333 17.3176667,18.0450667 16.7056667,19.5357333 C16.3056667,20.3317333 15.483,21.0797333 14.7236667,21.5150667 C12.459,22.8190667 10.0436667,22.7030667 7.56166667,22.6224 C4.15566667,22.5150667 -0.187666667,20.6150667 0.449666667,17.3284" id="Fill-13" fill="#FFFFFF" mask="url(#mask-2)"></path>
                </g>
                <g id="Group-18" transform="translate(0.000000, 17.394667)">
                    <mask id="mask-4" fill="white">
                        <use xlink:href="#path-3"></use>
                    </mask>
                    <g id="Clip-17"></g>
                    <path d="M0.863733333,7.4514 C0.9844,7.33206667 1.2604,7.02806667 1.37906667,6.93473333 C1.71906667,6.66606667 2.1284,6.35073333 2.67573333,6.09606667 C3.9084,5.65473333 5.32506667,5.73806667 6.6084,5.61806667 C7.6644,5.52406667 9.35173333,5.67273333 9.9904,4.57873333 C10.5357333,3.65206667 9.5384,2.96006667 8.86306667,2.61006667 C8.28706667,2.3954 6.35773333,2.3174 6.27906667,2.3174 C5.0944,2.26273333 2.7424,2.5214 2.2364,2.64273333 L3.45973333,0.4154 C4.16106667,0.2974 4.56906667,0.2634 5.04106667,0.202733333 C6.58306667,-0.0226 8.63573333,0.1114 10.1624,0.4154 C11.0557333,0.602066667 11.6957333,0.786066667 12.4770667,1.30806667 C12.7984,1.53006667 13.0397333,1.79873333 13.1450667,1.9194 C14.2650667,3.09073333 14.0744,4.48473333 14.1030667,5.99806667 L14.0744,13.0540667 C14.1424,13.6514 14.3084,14.2007333 14.4630667,14.3980667 L10.1230667,14.3980667 L10.2190667,7.6534 C9.1044,7.81273333 7.90506667,7.82473333 6.79773333,8.0034 C5.71906667,8.1594 4.37906667,8.46406667 4.05573333,9.7174 C3.6424,11.3227333 5.0704,12.0614 6.3224,12.2880667 C6.56306667,12.3380667 8.28706667,12.4274 8.27706667,12.4274 C8.57106667,12.4180667 8.73973333,12.4180667 9.11373333,12.4180667 L7.89173333,14.5074 C7.30573333,14.6087333 6.35773333,14.5947333 5.8004,14.5427333 C4.40173333,14.4140667 3.05973333,14.0934 1.9304,13.3314 C0.863733333,12.6694 0.1624,11.7474 0.0364,10.3674 C-0.160933333,9.14273333 0.487733333,7.98406667 0.863733333,7.4514" id="Fill-16" fill="#FFFFFF" mask="url(#mask-4)"></path>
                </g>
                <path d="M52.283,29.7920667 C50.0403333,29.9200667 48.5176667,28.0414 48.457,24.9007333 C48.3596667,22.0267333 49.5856667,20.0427333 52.2436667,19.9954 C54.4523333,19.9247333 56.059,22.0127333 56.0216667,24.9194 C56.221,27.8540667 54.5323333,29.9567333 52.283,29.7920667 M57.3423333,18.9914 C56.8256667,18.6200667 56.183,18.2754 55.5723333,18.0507333 C54.0236667,17.5054 52.2556667,17.3720667 50.6196667,17.6200667 C48.267,17.9960667 45.9276667,19.3827333 44.899,21.5480667 C43.809,23.8614 43.9663333,25.7660667 44.8356667,27.8447333 C45.3596667,29.1334 46.695,30.5314 47.947,31.1934 C49.597,32.1067333 52.0196667,32.4474 53.919,32.0767333 C55.7716667,31.7154 57.615,30.7954 58.7636667,29.3874 C58.9243333,29.1720667 59.135,28.9294 59.2823333,28.6874 C61.1976667,25.3794 60.373,21.1614 57.3423333,18.9914" id="Fill-19" fill="#FFFFFF"></path>
                <path d="M13.8758,6.5492 L8.54313333,6.5492 C8.54313333,7.41186667 8.77713333,8.07586667 9.2518,8.54253333 C9.6758,8.9412 10.2138,9.14186667 10.8678,9.14186667 C11.6238,9.14186667 12.2518,8.9192 12.7518,8.4832 L13.3111333,9.43986667 C13.1084667,9.6432 12.7898,9.8172 12.3751333,9.96386667 C11.8544667,10.1605333 11.2638,10.2572 10.6171333,10.2572 C9.68713333,10.2572 8.89513333,9.94253333 8.24513333,9.30986667 C7.52313333,8.61586667 7.1618,7.6812 7.1618,6.5092 C7.1618,5.28453333 7.53246667,4.30653333 8.27313333,3.5772 C8.9358,2.9112 9.72313333,2.59053333 10.6271333,2.59053333 C11.6831333,2.59053333 12.5104667,2.88253333 13.1091333,3.4752 C13.6838,4.04786667 13.9798,4.8052 13.9798,5.75253333 C13.9798,6.04586667 13.9438,6.30453333 13.8758,6.5492 M10.6844667,3.70186667 C10.1011333,3.70186667 9.6098,3.88786667 9.21513333,4.26586667 C8.83246667,4.6232 8.6198,5.06853333 8.5718,5.5992 L12.6698,5.5992 C12.6698,5.07053333 12.5058,4.63586667 12.1684667,4.27986667 C11.8111333,3.8892 11.3131333,3.70186667 10.6844667,3.70186667" id="Fill-21" fill="#FFFFFF"></path>
                <path d="M23.9656667,10.128 L23.9656667,5.45066667 C23.9656667,4.28066667 23.461,3.70133333 22.447,3.70133333 C22.1316667,3.70133333 21.8296667,3.80333333 21.553,3.998 C21.2796667,4.18733333 21.085,4.40733333 20.9836667,4.65666667 L20.9836667,10.128 L19.673,10.128 L19.673,4.87133333 C19.673,4.51266667 19.5376667,4.226 19.2603333,4.016 C18.985,3.80533333 18.6216667,3.70133333 18.1683333,3.70133333 C17.9036667,3.70133333 17.621,3.80333333 17.3243333,4.006 C17.025,4.208 16.8136667,4.42466667 16.6896667,4.668 L16.6896667,10.128 L15.3756667,10.128 L15.3756667,2.718 L16.2363333,2.718 L16.6716667,3.58533333 C17.177,2.91933333 17.8143333,2.58933333 18.5776667,2.58933333 C19.6416667,2.58933333 20.385,2.91266667 20.805,3.572 C20.953,3.28866667 21.2296667,3.05466667 21.633,2.87066667 C22.0356667,2.68133333 22.4436667,2.58933333 22.8696667,2.58933333 C23.6356667,2.58933333 24.2316667,2.81333333 24.6496667,3.26 C25.0683333,3.72266667 25.2816667,4.35533333 25.2816667,5.17333333 L25.2816667,10.128 L23.9656667,10.128 Z" id="Fill-23" fill="#FFFFFF"></path>
                <path d="M33.3598667,6.5492 L28.0185333,6.5492 C28.0185333,7.41186667 28.2565333,8.07586667 28.7298667,8.54253333 C29.1538667,8.9412 29.6892,9.14186667 30.3512,9.14186667 C31.1072,9.14186667 31.7285333,8.9192 32.2365333,8.4832 L32.7878667,9.43986667 C32.5865333,9.6432 32.2772,9.8172 31.8585333,9.96386667 C31.3312,10.1605333 30.7425333,10.2572 30.0998667,10.2572 C29.1678667,10.2572 28.3785333,9.94253333 27.7312,9.30986667 C27.0025333,8.61586667 26.6385333,7.6812 26.6385333,6.5092 C26.6385333,5.28453333 27.0152,4.30653333 27.7532,3.5772 C28.4145333,2.9112 29.2038667,2.59053333 30.1118667,2.59053333 C31.1665333,2.59053333 31.9925333,2.88253333 32.5912,3.4752 C33.1725333,4.04786667 33.4605333,4.8052 33.4605333,5.75253333 C33.4605333,6.04586667 33.4312,6.30453333 33.3598667,6.5492 M30.1678667,3.70186667 C29.5818667,3.70186667 29.0945333,3.88786667 28.6992,4.26586667 C28.3185333,4.6232 28.0992,5.06853333 28.0532,5.5992 L32.1505333,5.5992 C32.1505333,5.07053333 31.9825333,4.63586667 31.6512,4.27986667 C31.2858667,3.8892 30.7898667,3.70186667 30.1678667,3.70186667" id="Fill-25" fill="#FFFFFF"></path>
                <path d="M39.4197333,10.128 L39.4197333,5.82666667 C39.4197333,5.04 39.2977333,4.48733333 39.0630667,4.174 C38.8237333,3.858 38.4297333,3.70133333 37.8650667,3.70133333 C37.5637333,3.70133333 37.2537333,3.78866667 36.9257333,3.96866667 C36.5997333,4.15333333 36.3477333,4.36866667 36.1644,4.63133333 L36.1644,10.128 L34.8604,10.128 L34.8604,2.718 L35.7564,2.718 L36.1764,3.67 C36.6050667,2.94666667 37.3104,2.58933333 38.2964,2.58933333 C39.9190667,2.58933333 40.7264,3.572 40.7264,5.54733333 L40.7264,10.128 L39.4197333,10.128 Z" id="Fill-27" fill="#FFFFFF"></path>
                <g id="Group-31" transform="translate(42.000000, 0.061333)">
                    <mask id="mask-6" fill="white">
                        <use xlink:href="#path-5"></use>
                    </mask>
                    <g id="Clip-30"></g>
                    <path d="M1.07826667,3.6884 L0.220266667,3.6884 L0.220266667,2.6564 L1.07826667,2.6564 L1.07826667,1.11306667 L2.38493333,0.605066667 L2.38493333,2.6564 L4.41626667,2.6564 L4.41626667,3.6884 L2.38493333,3.6884 L2.38493333,7.35506667 C2.38493333,7.9824 2.4936,8.4224 2.69826667,8.6884 C2.9076,8.95106667 3.24493333,9.08173333 3.70893333,9.08173333 C4.0436,9.08173333 4.39026667,8.99306667 4.74826667,8.81306667 L4.94226667,9.9824 C4.40226667,10.1244 3.80426667,10.1964 3.15226667,10.1964 C2.57426667,10.1964 2.07693333,9.9764 1.67626667,9.54106667 C1.2756,9.10373333 1.07826667,8.55773333 1.07826667,7.89573333 L1.07826667,3.6884 Z" id="Fill-29" fill="#FFFFFF" mask="url(#mask-6)"></path>
                </g>
                <path d="M54.4373333,6.5492 L49.0946667,6.5492 C49.0946667,7.41186667 49.3393333,8.07586667 49.816,8.54253333 C50.2326667,8.9412 50.772,9.14186667 51.4326667,9.14186667 C52.184,9.14186667 52.8126667,8.9192 53.3166667,8.4832 L53.87,9.43986667 C53.668,9.6432 53.3546667,9.8172 52.9333333,9.96386667 C52.412,10.1605333 51.824,10.2572 51.1793333,10.2572 C50.2466667,10.2572 49.4533333,9.94253333 48.8073333,9.30986667 C48.0873333,8.61586667 47.7213333,7.6812 47.7213333,6.5092 C47.7213333,5.28453333 48.0926667,4.30653333 48.834,3.5772 C49.4986667,2.9112 50.2806667,2.59053333 51.192,2.59053333 C52.2433333,2.59053333 53.072,2.88253333 53.6713333,3.4752 C54.25,4.04786667 54.538,4.8052 54.538,5.75253333 C54.538,6.04586667 54.5113333,6.30453333 54.4373333,6.5492 M51.2493333,3.70186667 C50.6566667,3.70186667 50.176,3.88786667 49.778,4.26586667 C49.3986667,4.6232 49.184,5.06853333 49.1366667,5.5992 L53.2313333,5.5992 C53.2313333,5.07053333 53.066,4.63586667 52.73,4.27986667 C52.37,3.8892 51.8733333,3.70186667 51.2493333,3.70186667" id="Fill-32" fill="#FFFFFF"></path>
                <path d="M55.4513333,9.86366667 L55.9093333,8.62433333 C56.6413333,9.09233333 57.236,9.32566667 57.6846667,9.32566667 C58.498,9.32566667 58.9053333,8.991 58.9053333,8.31166667 C58.9053333,7.82366667 58.5133333,7.40966667 57.7313333,7.053 C57.122,6.78766667 56.7166667,6.573 56.5033333,6.43166667 C56.2946667,6.28966667 56.1166667,6.12766667 55.9573333,5.943 C55.7993333,5.76433333 55.6866667,5.57233333 55.6146667,5.36366667 C55.532,5.16033333 55.5006667,4.93833333 55.5006667,4.70233333 C55.5006667,4.09833333 55.716,3.62233333 56.16,3.28366667 C56.6006667,2.94233333 57.1793333,2.76766667 57.898,2.76766667 C58.436,2.76766667 59.1166667,2.94233333 59.9366667,3.281 L59.5666667,4.491 C59.042,4.09366667 58.5166667,3.88766667 57.9893333,3.88766667 C57.6746667,3.88766667 57.4126667,3.961 57.1946667,4.107 C56.976,4.25633333 56.8693333,4.44366667 56.8693333,4.661 C56.8693333,5.13766667 57.1446667,5.49433333 57.6846667,5.739 L58.6273333,6.165 C59.2066667,6.427 59.6246667,6.72566667 59.892,7.06166667 C60.1546667,7.40233333 60.284,7.81966667 60.284,8.32166667 C60.284,8.991 60.0486667,9.50566667 59.5853333,9.885 C59.1166667,10.257 58.476,10.4403333 57.65,10.4403333 C56.8666667,10.4403333 56.1346667,10.2523333 55.4513333,9.86366667" id="Fill-34" fill="#FFFFFF"></path>
                <path d="M1.257,9.68006667 L1.723,8.43873333 C2.45566667,8.9094 3.045,9.1414 3.491,9.1414 C4.303,9.1414 4.71566667,8.80406667 4.71566667,8.12673333 C4.71566667,7.64073333 4.32033333,7.2214 3.53366667,6.87206667 C2.93166667,6.59873333 2.52166667,6.38606667 2.31366667,6.24673333 C2.10433333,6.10206667 1.917,5.94073333 1.76433333,5.7594 C1.611,5.5714 1.49366667,5.3814 1.41566667,5.1734 C1.34366667,4.97206667 1.303,4.75206667 1.303,4.5194 C1.303,3.90806667 1.523,3.43673333 1.969,3.09273333 C2.40966667,2.75206667 2.991,2.5894 3.70566667,2.5894 C4.249,2.5894 4.92366667,2.75206667 5.74633333,3.09273333 L5.37433333,4.30606667 C4.84766667,3.90206667 4.32433333,3.70073333 3.79766667,3.70073333 C3.48233333,3.70073333 3.22166667,3.7734 3.00033333,3.9194 C2.785,4.06806667 2.68433333,4.25473333 2.68433333,4.4774 C2.68433333,4.9514 2.95433333,5.30606667 3.491,5.55206667 L4.433,5.9794 C5.01433333,6.24206667 5.43366667,6.53873333 5.695,6.87673333 C5.961,7.20806667 6.09566667,7.63206667 6.09566667,8.1354 C6.09566667,8.7994 5.85766667,9.31806667 5.395,9.69273333 C4.92366667,10.0720667 4.285,10.2554 3.46033333,10.2554 C2.67566667,10.2554 1.94233333,10.0667333 1.257,9.68006667" id="Fill-36" fill="#FFFFFF"></path>
                <g id="Group-40" transform="translate(132.000000, 30.061333)">
                    <mask id="mask-8" fill="white">
                        <use xlink:href="#path-7"></use>
                    </mask>
                    <g id="Clip-39"></g>
                    <path d="M0.543133333,2.36546667 C0.543133333,1.35613333 1.37646667,0.525466667 2.39913333,0.525466667 L2.39913333,0.8688 C1.5718,0.8688 0.893133333,1.5508 0.893133333,2.36546667 C0.893133333,3.1988 1.5718,3.87813333 2.39913333,3.87813333 C3.21313333,3.87813333 3.89046667,3.1988 3.89046667,2.36546667 C3.89046667,1.5508 3.21313333,0.8688 2.39913333,0.8688 L2.39913333,0.525466667 C3.40846667,0.525466667 4.2398,1.35613333 4.2398,2.36546667 C4.2398,3.3908 3.40846667,4.22413333 2.39913333,4.22413333 C1.37646667,4.22413333 0.543133333,3.3908 0.543133333,2.36546667" id="Fill-38" fill="#FFFFFF" mask="url(#mask-8)"></path>
                </g>
                <path d="M134.450667,32.3512667 L134.061333,32.3512667 L134.061333,31.6986 L134.464667,31.6986 C134.594667,31.6986 134.698667,31.7266 134.774667,31.7792667 C134.852667,31.8312667 134.896,31.9232667 134.896,32.0266 C134.896,32.1292667 134.852667,32.2186 134.774667,32.2666 C134.698667,32.3192667 134.594667,32.3512667 134.450667,32.3512667 Z M134.789333,32.4952667 C134.902667,32.4546 134.986667,32.3879333 135.049333,32.3099333 C135.11,32.2326 135.129333,32.1452667 135.129333,32.0266 C135.129333,31.8592667 135.078,31.7266 134.962,31.6459333 C134.852667,31.5592667 134.686667,31.5159333 134.464667,31.5159333 L133.838667,31.5159333 L133.838667,33.3566 L134.061333,33.3566 L134.061333,32.5319333 L134.583333,32.5319333 L134.931333,33.3566 L135.170667,33.3566 L134.789333,32.4952667 Z" id="Fill-41" fill="#FFFFFF"></path>
            </g>
        </g>
    </g>
</svg>