[
  {
    "Name": "Clients",
    "SoupName": "Account",
    "IsMaleGender": true,
    "Label": "Clientes",
    "Fields": [
      {
        "Name": "Id",
        "IsIndex": true,
        "Type": "string",
        "IsNotQueryUP": true
      },
      {
        "Name": "Name",
        "IsIndex": true,
        "Type": "string",
        "IsNotQueryUP": true
      },
      {
        "Name": "RecordTypeId",
        "IsIndex": true,
        "Type": "string",
        "IsNotQueryUP": true
      },
      {
        "Name": "Municipio__c",
        "IsIndex": true,
        "Type": "string",
        "IsNotQueryUP": true
      },
      {
        "Name": "UF__c",
        "IsIndex": true,
        "Type": "string",
        "IsNotQueryUP": true
      },
      {
        "Name": "Inscricao_Estadual_Produtor__c",
        "IsIndex": true,
        "Type": "string",
        "IsNotQueryUP": true
      },
      {
        "Name": "GC_VATIN__c",
        "Alias": "CpfCnpj",
        "IsIndex": true,
        "Type": "string",
        "IsNotQueryUP": true
      },
      {
        "Name": "Phone",
        "IsIndex": true,
        "Type": "string",
        "IsNotQueryUP": true
      },
      {
        "Name": "GC_Email_Address__c",
        "IsIndex": true,
        "Type": "string",
        "IsNotQueryUP": true
      },
      {
        "Name": "BR_BirthDate__c",
        "IsIndex": true,
        "Type": "string",
        "IsNotQueryUP": true
      },
      {
        "Name": "GC_SAP_ID__c",
        "Alias": "Sap",
        "IsIndex": true,
        "Type": "string",
        "IsNotQueryUP": true
      },
      {
        "Name": "__local__",
        "IsIndex": true,
        "IsNotQuery": true,
        "IsNotQueryUP": true,
        "Type": "boolean"
      },
      {
        "Name": "__locally_created__",
        "IsIndex": false,
        "IsNotQuery": true,
        "IsNotQueryUP": true,
        "Type": "boolean"
      },
      {
        "Name": "__locally_updated__",
        "IsIndex": false,
        "IsNotQuery": true,
        "IsNotQueryUP": true,
        "Type": "boolean"
      },
      {
        "Name": "__locally_deleted__",
        "IsIndex": false,
        "IsNotQuery": true,
        "IsNotQueryUP": true,
        "Type": "boolean"
      }
    ],
    "Related": [
      {
        "Name": "RecordType",
        "ToEntity": "RecordType",
        "OnColumn": "RecordTypeId",
        "ByColumn": "Id",
        "Type": "Model"
      }
    ]
  },
  {
    "Name": "RecordType",
    "SoupName": "RecordType",
    "IsMaleGender": true,
    "Label": "Tipo de Registros",
    "Fields": [
      {
        "Name": "Id",
        "IsIndex": true,
        "Type": "string",
        "IsNotQueryUP": true
      },
      {
        "Name": "DeveloperName",
        "IsIndex": true,
        "Type": "string",
        "IsNotQueryUP": true
      },
      {
        "Name": "Name",
        "IsIndex": true,
        "Type": "string",
        "IsNotQueryUP": true
      },
      {
        "Name": "__local__",
        "IsIndex": true,
        "IsNotQuery": true,
        "IsNotQueryUP": true,
        "Type": "boolean"
      },
      {
        "Name": "__locally_created__",
        "IsIndex": false,
        "IsNotQuery": true,
        "IsNotQueryUP": true,
        "Type": "boolean"
      },
      {
        "Name": "__locally_updated__",
        "IsIndex": false,
        "IsNotQuery": true,
        "IsNotQueryUP": true,
        "Type": "boolean"
      },
      {
        "Name": "__locally_deleted__",
        "IsIndex": false,
        "IsNotQuery": true,
        "IsNotQueryUP": true,
        "Type": "boolean"
      }
    ],
    "Related": []
  },
  {
    "Name": "Contacts",
    "SoupName": "Contact",
    "IsMaleGender": true,
    "Label": "Contatos",
    "Fields": [
      {
        "Name": "Id",
        "IsIndex": true,
        "Type": "string"
      },
      {
        "Name": "FirstName",
        "IsIndex": true,
        "Type": "string",
        "Required": true
      },
      {
        "Name": "Name",
        "IsIndex": true,
        "Type": "string",
        "IsNotQueryUP": true
      },
      {
        "Name": "LastName",
        "IsIndex": true,
        "Type": "string",
        "Required": true
      },
      {
        "Name": "AccountId",
        "IsIndex": true,
        "Type": "string"
      },
      {
        "Name": "RecordTypeId",
        "IsIndex": true,
        "Type": "string",
        "IsNotQueryUP": true
      },
      {
        "Name": "Phone",
        "IsIndex": true,
        "Type": "string"
      },
      {
        "Name": "MobilePhone",
        "IsIndex": true,
        "Type": "string"
      },
      {
        "Name": "Email",
        "IsIndex": true,
        "Type": "string"
      },
      {
        "Name": "BR_Brand__c",
        "IsIndex": true,
        "Type": "string"
      },
      {
        "Name": "__local__",
        "IsIndex": true,
        "IsNotQuery": true,
        "IsNotQueryUP": true,
        "Type": "boolean"
      },
      {
        "Name": "__locally_created__",
        "IsIndex": false,
        "IsNotQuery": true,
        "IsNotQueryUP": true,
        "Type": "boolean"
      },
      {
        "Name": "__locally_updated__",
        "IsIndex": false,
        "IsNotQuery": true,
        "IsNotQueryUP": true,
        "Type": "boolean"
      },
      {
        "Name": "__locally_deleted__",
        "IsIndex": false,
        "IsNotQuery": true,
        "IsNotQueryUP": true,
        "Type": "boolean"
      }
    ],
    "Related": [
      {
        "Name": "RecordType",
        "ToEntity": "RecordType",
        "OnColumn": "RecordTypeId",
        "ByColumn": "Id",
        "Type": "Model"
      },
      {
        "Name": "Account",
        "ToEntity": "Clients",
        "OnColumn": "AccountId",
        "ByColumn": "Id",
        "Type": "Model"
      }
    ]
  },
  {
    "Name": "User",
    "SoupName": "User",
    "IsMaleGender": true,
    "Label": "Usuários",
    "Fields": [
      {
        "Name": "Id",
        "IsIndex": true,
        "Type": "string",
        "IsNotQueryUP": true
      },
      {
        "Name": "LanguageLocaleKey",
        "IsIndex": true,
        "Type": "string",
        "IsNotQueryUP": true
      },
      {
        "Name": "BR_User_Type__c",
        "IsIndex": true,
        "Type": "string",
        "IsNotQueryUP": true
      },
      {
        "Name": "Name",
        "IsIndex": true,
        "Type": "string",
        "IsNotQueryUP": true
      },
      {
        "Name": "BR_DistrictName__c",
        "IsIndex": true,
        "Type": "string",
        "IsNotQueryUP": true
      },
      {
        "Name": "BR_Regional__c",
        "IsIndex": true,
        "Type": "string",
        "IsNotQueryUP": true
      },
      {
        "Name": "Marca__c",
        "IsIndex": true,
        "Type": "string",
        "IsNotQueryUP": true
      },
      {
        "Name": "__local__",
        "IsIndex": true,
        "IsNotQuery": true,
        "IsNotQueryUP": true,
        "Type": "boolean"
      },
      {
        "Name": "__locally_created__",
        "IsIndex": false,
        "IsNotQuery": true,
        "IsNotQueryUP": true,
        "Type": "boolean"
      },
      {
        "Name": "__locally_updated__",
        "IsIndex": false,
        "IsNotQuery": true,
        "IsNotQueryUP": true,
        "Type": "boolean"
      },
      {
        "Name": "__locally_deleted__",
        "IsIndex": false,
        "IsNotQuery": true,
        "IsNotQueryUP": true,
        "Type": "boolean"
      }
    ],
    "Related": []
  },
  {
    "Name": "ProfileMapping",
    "SoupName": "BR_ProfileMapping__c",
    "IsMaleGender": true,
    "Label": "Mapeamentos de perfil",
    "Fields": [
      {
        "Name": "Id",
        "IsIndex": true,
        "Type": "string"
      },
      {
        "Name": "RADL__c",
        "IsIndex": true,
        "Type": "string"
      },
      {
        "Name": "BR_Rating__c",
        "IsIndex": true,
        "Type": "string"
      },
      {
        "Name": "BR_MarketingInitiative__c",
        "IsIndex": true,
        "Type": "string"
      },
      {
        "Name": "BR_IsInfluencer__c",
        "IsIndex": true,
        "Type": "string"
      },
      {
        "Name": "BR_SalesSplit__c",
        "IsIndex": true,
        "Type": "string"
      },
      {
        "Name": "BR_Description__c",
        "IsIndex": true,
        "Type": "string"
      },
      {
        "Name": "BR_Account__c",
        "IsIndex": true,
        "Type": "string"
      },
      {
        "Name": "__local__",
        "IsIndex": true,
        "IsNotQuery": true,
        "IsNotQueryUP": true,
        "Type": "boolean"
      },
      {
        "Name": "__locally_created__",
        "IsIndex": false,
        "IsNotQuery": true,
        "IsNotQueryUP": true,
        "Type": "boolean"
      },
      {
        "Name": "__locally_updated__",
        "IsIndex": false,
        "IsNotQuery": true,
        "IsNotQueryUP": true,
        "Type": "boolean"
      },
      {
        "Name": "__locally_deleted__",
        "IsIndex": false,
        "IsNotQuery": true,
        "IsNotQueryUP": true,
        "Type": "boolean"
      }
    ],
    "Related": [
      {
        "Name": "Account",
        "ToEntity": "Clients",
        "OnColumn": "BR_Account__c",
        "ByColumn": "Id",
        "Type": "Model"
      }
    ]
  },
  {
    "Name": "Event",
    "SoupName": "Event",
    "IsMaleGender": true,
    "Label": "Eventos",
    "Fields": [
      {
        "Name": "Id",
        "IsIndex": true,
        "Type": "string"
      },
      {
        "Name": "AccountId",
        "IsIndex": true,
        "Type": "string"
      },
      {
        "Name": "Status__c",
        "IsIndex": true,
        "Type": "string"
      },
      {
        "Name": "BR_Division__c",
        "IsIndex": true,
        "Type": "string"
      },
      {
        "Name": "BR_Tipo_de_Visita__c",
        "IsIndex": true,
        "Type": "string"
      },
      {
        "Name": "Geracao_de_Demanda__c",
        "IsIndex": true,
        "Type": "string"
      },
      {
        "Name": "Data_do_Plantio_Visit__c",
        "IsIndex": true,
        "Type": "string"
      },
      {
        "Name": "Safra__c",
        "IsIndex": true,
        "Type": "string"
      },
      {
        "Name": "AccountId",
        "IsIndex": true,
        "Type": "string"
      },
      {
        "Name": "Fazenda__c",
        "IsIndex": true,
        "Type": "string"
      },
      {
        "Name": "Customer_Contact_ID__c",
        "IsIndex": true,
        "Type": "string"
      },
      {
        "Name": "StartDateTime",
        "IsIndex": true,
        "Type": "string"
      },
      {
        "Name": "EndDateTime",
        "IsIndex": true,
        "Type": "string"
      },
      {
        "Name": "Lembrete__c",
        "IsIndex": true,
        "Type": "string"
      },
      {
        "Name": "__local__",
        "IsIndex": true,
        "IsNotQuery": true,
        "IsNotQueryUP": true,
        "Type": "boolean"
      },
      {
        "Name": "__locally_created__",
        "IsIndex": false,
        "IsNotQuery": true,
        "IsNotQueryUP": true,
        "Type": "boolean"
      },
      {
        "Name": "__locally_updated__",
        "IsIndex": false,
        "IsNotQuery": true,
        "IsNotQueryUP": true,
        "Type": "boolean"
      },
      {
        "Name": "__locally_deleted__",
        "IsIndex": false,
        "IsNotQuery": true,
        "IsNotQueryUP": true,
        "Type": "boolean"
      }
    ],
    "Related": [
      {
        "Name": "Account",
        "ToEntity": "Clients",
        "OnColumn": "AccountId",
        "ByColumn": "Id",
        "Type": "Model"
      }
    ]
  },
  {
    "Name": "Visita",
    "SoupName": "Visita__c",
    "IsMaleGender": false,
    "Label": "Visitas",
    "Fields": [
      {
        "Name": "Id",
        "IsIndex": true,
        "Type": "string"
      },
      {
        "Name": "divulgacao_de_resultado__c",
        "IsIndex": false,
        "Type": "boolean"
      },
      {
        "Name": "BR_Altitude__c",
        "IsIndex": false,
        "Type": "string"
      },
      {
        "Name": "BR_BaseFertilizationN__c",
        "IsIndex": false,
        "Type": "string"
      },
      {
        "Name": "BR_BaseFertilizationP__c",
        "IsIndex": false,
        "Type": "string"
      },
      {
        "Name": "BR_BaseFertilizationK__c",
        "IsIndex": false,
        "Type": "string"
      },
      {
        "Name": "Filial__c",
        "IsIndex": false,
        "Type": "string"
      },
      {
        "Name": "BR_ConditionPlanting__c",
        "IsIndex": false,
        "Type": "string"
      },
      {
        "Name": "BR_FertilizationCoveringK__c",
        "IsIndex": false,
        "Type": "string"
      },
      {
        "Name": "BR_FertilizationCoveringN__c",
        "IsIndex": false,
        "Type": "string"
      },
      {
        "Name": "BR_FertilizationCoveringP__c",
        "IsIndex": false,
        "Type": "string"
      },
      {
        "Name": "Cliente__c",
        "IsIndex": false,
        "Type": "string"
      },
      {
        "Name": "Data_de_Execucao__c",
        "IsIndex": false,
        "Type": "string"
      },
      {
        "Name": "BR_MachineCitySummer__c",
        "IsIndex": false,
        "Type": "string"
      },
      {
        "Name": "BR_MachineState__c",
        "IsIndex": false,
        "Type": "string"
      },
      {
        "Name": "De_Solo__c",
        "IsIndex": false,
        "Type": "string"
      },
      {
        "Name": "GerDemandaId__c",
        "IsIndex": false,
        "Type": "string"
      },
      {
        "Name": "BR_DistrictOwner__c",
        "IsIndex": false,
        "Type": "string"
      },
      {
        "Name": "BR_Division__c",
        "IsIndex": false,
        "Type": "string"
      },
      {
        "Name": "Dosagem_Atrasina__c",
        "IsIndex": false,
        "Type": "string"
      },
      {
        "Name": "BR_DosingOfKFertilization__c",
        "IsIndex": false,
        "Type": "string"
      },
      {
        "Name": "BR_DosingOfPFertilization__c",
        "IsIndex": false,
        "Type": "string"
      },
      {
        "Name": "Dosagem_de_Dessecacao__c",
        "IsIndex": false,
        "Type": "string"
      },
      {
        "Name": "Final__c",
        "IsIndex": false,
        "Type": "string"
      },
      {
        "Name": "Eventos_de_Geracao_de_Demanda__c",
        "IsIndex": false,
        "Type": "string"
      },
      {
        "Name": "BR_Farm__c",
        "IsIndex": false,
        "Type": "string"
      },
      {
        "Name": "BR_Talhao__c",
        "IsIndex": false,
        "Type": "string"
      },
      {
        "Name": "Safra__c",
        "IsIndex": false,
        "Type": "string"
      },
      {
        "Name": "Matriz__c",
        "IsIndex": false,
        "Type": "string"
      },
      {
        "Name": "Hibrido__c",
        "IsIndex": false,
        "Type": "string"
      },
      {
        "Name": "BR_Silage__c",
        "IsIndex": false,
        "Type": "boolean"
      },
      {
        "Name": "Jornada_do_Agricultor__c",
        "IsIndex": false,
        "Type": "string"
      },
      {
        "Name": "Latitude__c",
        "IsIndex": false,
        "Type": "string"
      },
      {
        "Name": "Longitude__c",
        "IsIndex": false,
        "Type": "string"
      },
      {
        "Name": "Mastigador__c",
        "IsIndex": false,
        "Type": "string"
      },
      {
        "Name": "BR_Corn__c",
        "IsIndex": false,
        "Type": "string"
      },
      {
        "Name": "BR_Owner_DistrictName__c",
        "IsIndex": false,
        "Type": "string"
      },
      {
        "Name": "Observacao__c",
        "IsIndex": false,
        "Type": "string"
      },
      {
        "Name": "Porcentagem_de_Produtividade__c",
        "IsIndex": false,
        "Type": "string"
      },
      {
        "Name": "BR_PlanningPreHarvest__c",
        "IsIndex": false,
        "Type": "boolean"
      },
      {
        "Name": "Area_Plantada__c",
        "IsIndex": false,
        "Type": "string"
      },
      {
        "Name": "BR_PlantingDepth__c",
        "IsIndex": false,
        "Type": "string"
      },
      {
        "Name": "BR_PlantingSystem__c",
        "IsIndex": false,
        "Type": "string"
      },
      {
        "Name": "Populacao__c",
        "IsIndex": false,
        "Type": "string"
      },
      {
        "Name": "BR_PercentageAreaPlanted__c",
        "IsIndex": false,
        "Type": "string"
      },
      {
        "Name": "BR_PreviousCrop__c",
        "IsIndex": false,
        "Type": "string"
      },
      {
        "Name": "Produtividade_da_Outra_Marca__c",
        "IsIndex": false,
        "Type": "string"
      },
      {
        "Name": "Produtividade_da_Minha_Marca__c",
        "IsIndex": false,
        "Type": "string"
      },
      {
        "Name": "BR_Product__c",
        "IsIndex": false,
        "Type": "string"
      },
      {
        "Name": "BR_ProductUsed__c",
        "IsIndex": false,
        "Type": "string"
      },
      {
        "Name": "BR_RattonProduct__c",
        "IsIndex": false,
        "Type": "string"
      },
      {
        "Name": "Perfil_de_Estrategia__c",
        "IsIndex": false,
        "Type": "string"
      },
      {
        "Name": "BR_TechUsed__c",
        "IsIndex": false,
        "Type": "string"
      },
      {
        "Name": "BR_QuantityProducts__c",
        "IsIndex": false,
        "Type": "string"
      },
      {
        "Name": "BR_QtdIntentAreaInscribed__c",
        "IsIndex": false,
        "Type": "string"
      },
      {
        "Name": "BR_Owner_Regional__c",
        "IsIndex": false,
        "Type": "string"
      },
      {
        "Name": "Coloracao_do_Solo__c",
        "IsIndex": false,
        "Type": "string"
      },
      {
        "Name": "Textura_do_solo__c",
        "IsIndex": false,
        "Type": "string"
      },
      {
        "Name": "Espacamento__c",
        "IsIndex": false,
        "Type": "string"
      },
      {
        "Name": "Sugador__c",
        "IsIndex": false,
        "Type": "string"
      },
      {
        "Name": "Plantio_Direto__c",
        "IsIndex": false,
        "Type": "boolean"
      },
      {
        "Name": "BR_SeedsTreatment__c",
        "IsIndex": false,
        "Type": "string"
      },
      {
        "Name": "Tipo_de_Geracao_de_Demanda__c",
        "IsIndex": false,
        "Type": "string"
      },
      {
        "Name": "BR_TypeManagement__c",
        "IsIndex": false,
        "Type": "string"
      },
      {
        "Name": "BR_Owner_Unit__c",
        "IsIndex": false,
        "Type": "string"
      },
      {
        "Name": "Vitoria__c",
        "IsIndex": false,
        "Type": "string"
      },
      {
        "Name": "Name",
        "IsIndex": false,
        "Type": "string"
      },
      {
        "Name": "Data_do_Plantio__c",
        "IsIndex": false,
        "Type": "string"
      },
      {
        "Name": "Ervas_Daninhas__c",
        "IsIndex": false,
        "Type": "string"
      },
      {
        "Name": "BR_WhatDiseaseAttackedArea__c",
        "IsIndex": false,
        "Type": "string"
      },
      {
        "Name": "BR_PragueWhichAttackedArea__c",
        "IsIndex": false,
        "Type": "string"
      },
      {
        "Name": "__local__",
        "IsIndex": true,
        "IsNotQuery": true,
        "IsNotQueryUP": true,
        "Type": "boolean"
      },
      {
        "Name": "__locally_created__",
        "IsIndex": false,
        "IsNotQuery": true,
        "IsNotQueryUP": true,
        "Type": "boolean"
      },
      {
        "Name": "__locally_updated__",
        "IsIndex": false,
        "IsNotQuery": true,
        "IsNotQueryUP": true,
        "Type": "boolean"
      },
      {
        "Name": "__locally_deleted__",
        "IsIndex": false,
        "IsNotQuery": true,
        "IsNotQueryUP": true,
        "Type": "boolean"
      }
    ],
    "Related": []
  },
  {
    "Name": "VisitHybrid",
    "SoupName": "Hibrido_de_Visita__c",
    "IsMaleGender": true,
    "Label": "Híbridos de visita",
    "Fields": [
      {
        "Name": "Id",
        "IsIndex": true,
        "Type": "string"
      },
      {
        "Name": "Anel__c",
        "IsIndex": false,
        "Type": "string"
      },
      {
        "Name": "BR_PlantLodging__c",
        "IsIndex": false,
        "Type": "string"
      },
      {
        "Name": "BR_GetParentSpacing__c",
        "IsIndex": false,
        "Type": "string"
      },
      {
        "Name": "Quebramento__c",
        "IsIndex": false,
        "Type": "string"
      },
      {
        "Name": "BR_CycleDaysFormula__c",
        "IsIndex": false,
        "Type": "string"
      },
      {
        "Name": "BR_ClassificationVariety__c",
        "IsIndex": false,
        "Type": "string"
      },
      {
        "Name": "BR_Comment__c",
        "IsIndex": false,
        "Type": "string"
      },
      {
        "Name": "BR_DayCicle__c",
        "IsIndex": false,
        "Type": "string"
      },
      {
        "Name": "BR_DayCycle__c",
        "IsIndex": false,
        "Type": "string"
      },
      {
        "Name": "BR_PlantationDate__c",
        "IsIndex": false,
        "Type": "string"
      },
      {
        "Name": "BR_HarvestDate__c",
        "IsIndex": false,
        "Type": "string"
      },
      {
        "Name": "BR_DesfoliationDate__c",
        "IsIndex": false,
        "Type": "string"
      },
      {
        "Name": "Disco__c",
        "IsIndex": false,
        "Type": "string"
      },
      {
        "Name": "BR_Dose__c",
        "IsIndex": false,
        "Type": "string"
      },
      {
        "Name": "Estimativa_da_populacao_final__c",
        "IsIndex": false,
        "Type": "string"
      },
      {
        "Name": "BR_HeightFinal__c",
        "IsIndex": false,
        "Type": "string"
      },
      {
        "Name": "Populacao_Final__c",
        "IsIndex": false,
        "Type": "string"
      },
      {
        "Name": "Peso_Bruto__c",
        "IsIndex": false,
        "Type": "string"
      },
      {
        "Name": "Area_Colhida__c",
        "IsIndex": false,
        "Type": "string"
      },
      {
        "Name": "BR_Height__c",
        "IsIndex": false,
        "Type": "string"
      },
      {
        "Name": "BR_ThereHasHarvest__c",
        "IsIndex": false,
        "Type": "boolean"
      },
      {
        "Name": "Hibrido_Visita__c",
        "IsIndex": false,
        "Type": "string"
      },
      {
        "Name": "Hibrido__c",
        "IsIndex": false,
        "Type": "string"
      },
      {
        "Name": "Insercao_de_espiga__c",
        "IsIndex": false,
        "Type": "string"
      },
      {
        "Name": "BR_Length__c",
        "IsIndex": false,
        "Type": "string"
      },
      {
        "Name": "BR_LiquidProductivitykgParcel__c",
        "IsIndex": false,
        "Type": "string"
      },
      {
        "Name": "Marca__c",
        "IsIndex": false,
        "Type": "string"
      },
      {
        "Name": "Umidade__c",
        "IsIndex": false,
        "Type": "string"
      },
      {
        "Name": "BR_LiquidProductivity__c",
        "IsIndex": false,
        "Type": "string"
      },
      {
        "Name": "Produtividade_Liquida_a_13__c",
        "IsIndex": false,
        "Type": "string"
      },
      {
        "Name": "Name",
        "IsIndex": false,
        "Type": "string"
      },
      {
        "Name": "BR_NumberOfLines__c",
        "IsIndex": false,
        "Type": "string"
      },
      {
        "Name": "Observaoes_gerais__c",
        "IsIndex": false,
        "Type": "string"
      },
      {
        "Name": "Peneiras__c",
        "IsIndex": false,
        "Type": "string"
      },
      {
        "Name": "Percentual_de_Grao_Ardido__c",
        "IsIndex": false,
        "Type": "string"
      },
      {
        "Name": "Peso_1000_graos__c",
        "IsIndex": false,
        "Type": "string"
      },
      {
        "Name": "BR_PitchLength__c",
        "IsIndex": false,
        "Type": "string"
      },
      {
        "Name": "Area_Plantada__c",
        "IsIndex": false,
        "Type": "string"
      },
      {
        "Name": "BR_PlantedArea__c",
        "IsIndex": false,
        "Type": "string"
      },
      {
        "Name": "BR_PlantedAreaUnit__c",
        "IsIndex": false,
        "Type": "string"
      },
      {
        "Name": "BR_PlantsPopulationHa__c",
        "IsIndex": false,
        "Type": "string"
      },
      {
        "Name": "BR_PlantsM__c",
        "IsIndex": false,
        "Type": "string"
      },
      {
        "Name": "BR_SeedsPopulationPerHa__c",
        "IsIndex": false,
        "Type": "string"
      },
      {
        "Name": "BR_PlantationSeedsM__c",
        "IsIndex": false,
        "Type": "string"
      },
      {
        "Name": "Populacao_de_Plantio__c",
        "IsIndex": false,
        "Type": "string"
      },
      {
        "Name": "Produto__c",
        "IsIndex": false,
        "Type": "string"
      },
      {
        "Name": "BR_ProductionProductionkgPitch__c",
        "IsIndex": false,
        "Type": "string"
      },
      {
        "Name": "BR_ProductivitySacksHa__c",
        "IsIndex": false,
        "Type": "string"
      },
      {
        "Name": "BR_LiquidProductivityScHa__c",
        "IsIndex": false,
        "Type": "string"
      },
      {
        "Name": "Qualidade_do_colmo__c",
        "IsIndex": false,
        "Type": "string"
      },
      {
        "Name": "Recomendacao_do_Manejo_Plantas_Daninh__c",
        "IsIndex": false,
        "Type": "string"
      },
      {
        "Name": "BR_ResultUsedForAnalysis__c",
        "IsIndex": false,
        "Type": "string"
      },
      {
        "Name": "Tratamento_de_Sementes__c",
        "IsIndex": false,
        "Type": "string"
      },
      {
        "Name": "BR_THa__c",
        "IsIndex": false,
        "Type": "string"
      },
      {
        "Name": "Tecnologia__c",
        "IsIndex": false,
        "Type": "string"
      },
      {
        "Name": "BR_VarietyType__c",
        "IsIndex": false,
        "Type": "string"
      },
      {
        "Name": "Tombamento__c",
        "IsIndex": false,
        "Type": "string"
      },
      {
        "Name": "Tipo_de_Geracao_de_Demanda__c",
        "IsIndex": false,
        "Type": "string"
      },
      {
        "Name": "BR_VarietySelectionHandling__c",
        "IsIndex": false,
        "Type": "string"
      },
      {
        "Name": "BR_VarietySelection__c",
        "IsIndex": false,
        "Type": "boolean"
      },
      {
        "Name": "Visita__c",
        "IsIndex": false,
        "Type": "string"
      },
      {
        "Name": "BR_PitchWidth__c",
        "IsIndex": false,
        "Type": "string"
      },
      {
        "Name": "__local__",
        "IsIndex": true,
        "IsNotQuery": true,
        "IsNotQueryUP": true,
        "Type": "boolean"
      },
      {
        "Name": "__locally_created__",
        "IsIndex": false,
        "IsNotQuery": true,
        "IsNotQueryUP": true,
        "Type": "boolean"
      },
      {
        "Name": "__locally_updated__",
        "IsIndex": false,
        "IsNotQuery": true,
        "IsNotQueryUP": true,
        "Type": "boolean"
      },
      {
        "Name": "__locally_deleted__",
        "IsIndex": false,
        "IsNotQuery": true,
        "IsNotQueryUP": true,
        "Type": "boolean"
      }
    ],
    "Related": [
      {
          "Name": "Visita__c",
          "ToEntity": "Visita",
          "OnColumn": "Visita__c",
          "ByColumn": "Id",
          "Type": "Model"
      }
    ]
  },
  {
    "Name": "Plague",
    "SoupName": "Praga__c",
    "IsMaleGender": false,
    "Label": "Pragas",
    "Fields": [
      {
        "Name": "Id",
        "IsIndex": true,
        "Type": "string"
      },
      {
        "Name": "Quimicos__c",
        "IsIndex": false,
        "Type": "string"
      },
      {
        "Name": "Dano__c",
        "IsIndex": false,
        "Type": "string"
      },
      {
        "Name": "Hibrido_de_Visita__c",
        "IsIndex": false,
        "Type": "string"
      },
      {
        "Name": "Nivel_de_Infestacao__c",
        "IsIndex": false,
        "Type": "string"
      },
      {
        "Name": "BR_Comments__c",
        "IsIndex": false,
        "Type": "string"
      },
      {
        "Name": "Name",
        "IsIndex": false,
        "Type": "string"
      },
      {
        "Name": "BR_Plague_present_previous_crop__c",
        "IsIndex": false,
        "Type": "string"
      },
      {
        "Name": "BR_Root_damage__c",
        "IsIndex": false,
        "Type": "string"
      },
      {
        "Name": "BR_Resistant__c",
        "IsIndex": false,
        "Type": "string"
      },
      {
        "Name": "Tipo_de_Praga__c",
        "IsIndex": false,
        "Type": "string"
      },
      {
        "Name": "BR_Visit__c",
        "IsIndex": false,
        "Type": "string"
      },
      {
        "Name": "BR_NematodesWhich__c",
        "IsIndex": false,
        "Type": "string"
      },
      {
        "Name": "Qual__c",
        "IsIndex": false,
        "Type": "boolean"
      },
      {
        "Name": "__local__",
        "IsIndex": true,
        "IsNotQuery": true,
        "IsNotQueryUP": true,
        "Type": "boolean"
      },
      {
        "Name": "__locally_created__",
        "IsIndex": false,
        "IsNotQuery": true,
        "IsNotQueryUP": true,
        "Type": "boolean"
      },
      {
        "Name": "__locally_updated__",
        "IsIndex": false,
        "IsNotQuery": true,
        "IsNotQueryUP": true,
        "Type": "boolean"
      },
      {
        "Name": "__locally_deleted__",
        "IsIndex": false,
        "IsNotQuery": true,
        "IsNotQueryUP": true,
        "Type": "boolean"
      }
    ],
    "Related": []
  },
  {
    "Name": "Disease",
    "SoupName": "Doenca__c",
    "IsMaleGender": false,
    "Label": "Doenças",
    "Fields": [
      {
        "Name": "Id",
        "IsIndex": true,
        "Type": "string"
      },
      {
        "Name": "Name",
        "IsIndex": false,
        "Type": "string"
      },
      {
        "Name": "Hibrido_de_Visita__c",
        "IsIndex": false,
        "Type": "string"
      },
      {
        "Name": "BR_LevelOfInfestation__c",
        "IsIndex": false,
        "Type": "string"
      },
      {
        "Name": "BR_Comments__c",
        "IsIndex": false,
        "Type": "string"
      },
      {
        "Name": "Produto__c",
        "IsIndex": false,
        "Type": "string"
      },
      {
        "Name": "BR_Resistant__c",
        "IsIndex": false,
        "Type": "boolean"
      },
      {
        "Name": "Tipo_de_Doenca__c",
        "IsIndex": false,
        "Type": "string"
      },
      {
        "Name": "BR_Visit__c",
        "IsIndex": false,
        "Type": "string"
      },
      {
        "Name": "__local__",
        "IsIndex": true,
        "IsNotQuery": true,
        "IsNotQueryUP": true,
        "Type": "boolean"
      },
      {
        "Name": "__locally_created__",
        "IsIndex": false,
        "IsNotQuery": true,
        "IsNotQueryUP": true,
        "Type": "boolean"
      },
      {
        "Name": "__locally_updated__",
        "IsIndex": false,
        "IsNotQuery": true,
        "IsNotQueryUP": true,
        "Type": "boolean"
      },
      {
        "Name": "__locally_deleted__",
        "IsIndex": false,
        "IsNotQuery": true,
        "IsNotQueryUP": true,
        "Type": "boolean"
      }
    ],
    "Related": []
  }
]