{
  "prepare_queue": {
    "installed": [],
    "uninstalled": []
  },
  "config_munge": {
    "files": {}
  },
  "installed_plugins": {
    "call-number": {
      "PACKAGE_NAME": "com.monsanto.brz.myOffice"
    },
    "com.salesforce": {
      "PACKAGE_NAME": "com.monsanto.brz.myOffice"
    },
    "cordova-fabric-plugin": {
      "FABRIC_API_KEY": "5290baae1cc23d5b606a748361a1e3e818480f68",
      "FABRIC_API_SECRET": "b6e8939c143329f7c4c69e2d9c1054657659a7dd099e5d1d843eaddd09ee68bd",
      "PACKAGE_NAME": "com.monsanto.brz.myOffice"
    },
    "cordova-plugin-app-preferences": {
      "PACKAGE_NAME": "com.monsanto.brz.myOffice"
    },
    "cordova-plugin-app-version": {
      "PACKAGE_NAME": "com.monsanto.brz.myOffice"
    },
    "cordova-plugin-camera": {
      "PACKAGE_NAME": "com.monsanto.brz.myOffice"
    },
    "cordova-plugin-compat": {
      "PACKAGE_NAME": "com.monsanto.brz.myOffice"
    },
    "cordova-plugin-datepicker": {
      "PACKAGE_NAME": "com.monsanto.brz.myOffice"
    },
    "cordova-plugin-device": {
      "PACKAGE_NAME": "com.monsanto.brz.myOffice"
    },
    "cordova-plugin-email-composer": {
      "PACKAGE_NAME": "com.monsanto.brz.myOffice"
    },
    "cordova-plugin-file": {
      "PACKAGE_NAME": "com.monsanto.brz.myOffice"
    },
    "cordova-plugin-geolocation": {
      "PACKAGE_NAME": "com.monsanto.brz.myOffice"
    },
    "cordova-plugin-insomnia": {
      "PACKAGE_NAME": "com.monsanto.brz.myOffice"
    },
    "cordova-plugin-native-logs": {
      "PACKAGE_NAME": "com.monsanto.brz.myOffice"
    },
    "cordova-plugin-network-information": {
      "PACKAGE_NAME": "com.monsanto.brz.myOffice"
    },
    "cordova-plugin-screen-orientation": {
      "PACKAGE_NAME": "com.monsanto.brz.myOffice"
    },
    "cordova-plugin-splashscreen": {
      "PACKAGE_NAME": "com.monsanto.brz.myOffice"
    },
    "cordova-plugin-statusbar": {
      "PACKAGE_NAME": "com.monsanto.brz.myOffice"
    },
    "cordova-plugin-whitelist": {
      "PACKAGE_NAME": "com.monsanto.brz.myOffice"
    },
    "cordova-plugin-wkwebview-engine": {
      "PACKAGE_NAME": "com.monsanto.brz.myOffice"
    },
    "cordova-plugin-wkwebview-inputfocusfix": {
      "PACKAGE_NAME": "com.monsanto.brz.myOffice"
    },
    "cordova-sqlite-storage": {
      "PACKAGE_NAME": "com.monsanto.brz.myOffice"
    },
    "ionic-plugin-keyboard": {
      "PACKAGE_NAME": "com.monsanto.brz.myOffice"
    }
  },
  "dependent_plugins": {
    "phonegap-plugin-push": {
      "PACKAGE_NAME": "com.monsanto.brz.myOffice"
    },
    "es6-promise-plugin": {
      "PACKAGE_NAME": "com.monsanto.brz.myOffice"
    }
  }
}