<svg xmlns="http://www.w3.org/2000/svg" xmlns:xlink="http://www.w3.org/1999/xlink" width="9" height="14" viewBox="0 0 9 14">
    <defs>
        <path id="a" d="M10.206 18.613l5.71-5.71c.065-.064.096-.128.16-.192.032-.031.032-.063.064-.095.031-.032.031-.096.063-.127.032-.032.032-.096.032-.128 0-.031.032-.063.032-.127 0-.063.032-.159.032-.223v-.031c0-.064 0-.16-.032-.223 0-.032-.032-.064-.032-.096 0-.031-.032-.095-.032-.127-.032-.032-.032-.095-.063-.127-.032-.032-.032-.064-.064-.096-.032-.063-.095-.127-.16-.19v-.032l-5.742-5.711a1.258 1.258 0 0 0-1.798 0A1.239 1.239 0 0 0 8 6.263c0 .319.127.631.376.886l4.052 4.03a1.175 1.175 0 0 1 0 1.665l-4.052 4.03A1.239 1.239 0 0 0 8 17.76c0 .249.08.493.233.71.456.652 1.406.705 1.973.143z"/>
    </defs>
    <g fill="none" fill-rule="evenodd" transform="translate(-8 -5)">
        <mask id="b" fill="#fff">
            <use xlink:href="#a"/>
        </mask>
        <use fill="#000" fill-rule="nonzero" xlink:href="#a"/>
        <g fill="#97A4A4" mask="url(#b)">
            <path d="M0 0h24v24H0z"/>
        </g>
    </g>
</svg>
