<?xml version="1.0" encoding="UTF-8"?>
<svg width="24px" height="24px" viewBox="0 0 24 24" version="1.1" xmlns="http://www.w3.org/2000/svg" xmlns:xlink="http://www.w3.org/1999/xlink">
    <!-- Generator: sketchtool 48.2 (47327) - http://www.bohemiancoding.com/sketch -->
    <title>7EE5DAC7-44BE-41A3-859A-59109842D32D</title>
    <desc>Created with sketchtool.</desc>
    <defs></defs>
    <g id="Symbols" stroke="none" stroke-width="1" fill="none" fill-rule="evenodd">
        <g id="ICON/Visualizar-agenda" fill="#FFFFFF">
            <path d="M16.6304348,7.43478261 L14.1956522,7.43478261 L14.1956522,5.63043478 C14.1956522,5.2826087 13.9130435,5 13.5652174,5 C13.2173913,5 12.9347826,5.2826087 12.9347826,5.63043478 L12.9347826,7.43478261 L7.06521739,7.43478261 L7.06521739,5.63043478 C7.06521739,5.2826087 6.7826087,5 6.43478261,5 C6.08695652,5 5.80434783,5.2826087 5.80434783,5.63043478 L5.80434783,7.43478261 L3.36956522,7.43478261 C2.06521739,7.43478261 1,8.5 1,9.80434783 L1,20.9782609 C1,22.2826087 2.06521739,23.3478261 3.36956522,23.3478261 L16.6304348,23.3478261 C17.9347826,23.3478261 19,22.2826087 19,20.9782609 L19,9.80434783 C19,8.5 17.9347826,7.43478261 16.6304348,7.43478261 Z M3.36956522,8.69565217 L5.80434783,8.69565217 L5.80434783,9.56521739 C5.80434783,9.91304348 6.08695652,10.1956522 6.43478261,10.1956522 C6.7826087,10.1956522 7.06521739,9.91304348 7.06521739,9.56521739 L7.06521739,8.69565217 L12.9130435,8.69565217 L12.9130435,9.56521739 C12.9130435,9.91304348 13.1956522,10.1956522 13.5434783,10.1956522 C13.8913043,10.1956522 14.173913,9.91304348 14.173913,9.56521739 L14.173913,8.69565217 L16.6086957,8.69565217 C17.2173913,8.69565217 17.7173913,9.19565217 17.7173913,9.80434783 L17.7173913,11.9130435 L2.26086957,11.9130435 L2.26086957,9.80434783 C2.26086957,9.19565217 2.76086957,8.69565217 3.36956522,8.69565217 Z M16.6304348,22.0869565 L3.36956522,22.0869565 C2.76086957,22.0869565 2.26086957,21.5869565 2.26086957,20.9782609 L2.26086957,13.1956522 L17.7391304,13.1956522 L17.7391304,20.9782609 C17.7391304,21.5869565 17.2391304,22.0869565 16.6304348,22.0869565 Z" id="Combined-Shape" fill-rule="nonzero"></path>
            <path d="M20,18.3189078 L20,17.0229765 C20.429053,16.8695473 20.7391304,16.4576082 20.7391304,15.9782609 L20.7391304,8.19565217 L20,8.19565217 L20,6.91304348 L20.7173913,6.91304348 L20.7173913,4.80434783 C20.7173913,4.19565217 20.2173913,3.69565217 19.6086957,3.69565217 L17.173913,3.69565217 L17.173913,4.56521739 C17.173913,4.91304348 16.8913043,5.19565217 16.5434783,5.19565217 C16.1956522,5.19565217 15.9130435,4.91304348 15.9130435,4.56521739 L15.9130435,3.69565217 L10.0652174,3.69565217 L10.0652174,4.56521739 C10.0652174,4.91304348 9.7826087,5.19565217 9.43478261,5.19565217 C9.08695652,5.19565217 8.80434783,4.91304348 8.80434783,4.56521739 L8.80434783,3.69565217 L6.36956522,3.69565217 C5.76086957,3.69565217 5.26086957,4.19565217 5.26086957,4.80434783 L5.26086957,6 L4,6 L4,4.80434783 C4,3.5 5.06521739,2.43478261 6.36956522,2.43478261 L8.80434783,2.43478261 L8.80434783,0.630434783 C8.80434783,0.282608696 9.08695652,0 9.43478261,0 C9.7826087,0 10.0652174,0.282608696 10.0652174,0.630434783 L10.0652174,2.43478261 L15.9347826,2.43478261 L15.9347826,0.630434783 C15.9347826,0.282608696 16.2173913,0 16.5652174,0 C16.9130435,0 17.1956522,0.282608696 17.1956522,0.630434783 L17.1956522,2.43478261 L19.6304348,2.43478261 C20.9347826,2.43478261 22,3.5 22,4.80434783 L22,15.9782609 C22,17.1569549 21.1301316,18.1403723 20,18.3189078 Z" id="Combined-Shape"></path>
            <path d="M6.7826087,19.4565217 L4.89130435,19.4565217 C4.54347826,19.4565217 4.26086957,19.7391304 4.26086957,20.0869565 C4.26086957,20.4347826 4.54347826,20.7173913 4.89130435,20.7173913 L6.7826087,20.7173913 C7.13043478,20.7173913 7.41304348,20.4347826 7.41304348,20.0869565 C7.41304348,19.7391304 7.13043478,19.4565217 6.7826087,19.4565217 Z" id="Shape"></path>
            <path d="M6.7826087,15.6999998 L4.89130435,15.6999998 C4.54347826,15.6999998 4.26086957,15.9826085 4.26086957,16.3304346 C4.26086957,16.6782607 4.54347826,16.9608694 4.89130435,16.9608694 L6.7826087,16.9608694 C7.13043478,16.9608694 7.41304348,16.6782607 7.41304348,16.3304346 C7.41304348,15.9826085 7.13043478,15.6999998 6.7826087,15.6999998 Z" id="Shape-Copy"></path>
            <path d="M11.2608696,19.4565217 L9.36956522,19.4565217 C9.02173913,19.4565217 8.73913043,19.7391304 8.73913043,20.0869565 C8.73913043,20.4347826 9.02173913,20.7173913 9.36956522,20.7173913 L11.2608696,20.7173913 C11.6086957,20.7173913 11.8913043,20.4347826 11.8913043,20.0869565 C11.8913043,19.7391304 11.6086957,19.4565217 11.2608696,19.4565217 Z" id="Shape"></path>
            <path d="M11.2608696,15.6956522 L9.36956522,15.6956522 C9.02173913,15.6956522 8.73913043,15.9782609 8.73913043,16.326087 C8.73913043,16.673913 9.02173913,16.9565217 9.36956522,16.9565217 L11.2608696,16.9565217 C11.6086957,16.9565217 11.8913043,16.673913 11.8913043,16.326087 C11.8913043,15.9782609 11.6086957,15.6956522 11.2608696,15.6956522 Z" id="Shape"></path>
            <path d="M15.7391304,19.4565217 L13.8478261,19.4565217 C13.5,19.4565217 13.2173913,19.7391304 13.2173913,20.0869565 C13.2173913,20.4347826 13.5,20.7173913 13.8478261,20.7173913 L15.7391304,20.7173913 C16.0869565,20.7173913 16.3695652,20.4347826 16.3695652,20.0869565 C16.3695652,19.7391304 16.0869565,19.4565217 15.7391304,19.4565217 Z" id="Shape"></path>
            <path d="M15.7391304,15.6956522 L13.8478261,15.6956522 C13.5,15.6956522 13.2173913,15.9782609 13.2173913,16.326087 C13.2173913,16.673913 13.5,16.9565217 13.8478261,16.9565217 L15.7391304,16.9565217 C16.0869565,16.9565217 16.3695652,16.673913 16.3695652,16.326087 C16.3695652,15.9782609 16.0869565,15.6956522 15.7391304,15.6956522 Z" id="Shape"></path>
        </g>
    </g>
</svg>