<?xml version="1.0" encoding="UTF-8"?>
<svg width="9px" height="14px" viewBox="0 0 9 14" version="1.1" xmlns="http://www.w3.org/2000/svg" xmlns:xlink="http://www.w3.org/1999/xlink">
    <!-- Generator: sketchtool 48.2 (47327) - http://www.bohemiancoding.com/sketch -->
    <title>89846264-7997-4297-B769-F2AAAB16F222</title>
    <desc>Created with sketchtool.</desc>
    <defs>
        <rect id="path-1" x="0" y="0" width="208" height="64" rx="3"></rect>
        <path d="M10.2059058,18.6132493 L15.9168687,12.9022864 C15.9805006,12.8386545 16.0123165,12.7750226 16.0759484,12.7113907 C16.1077644,12.6795747 16.1077644,12.6477588 16.1395803,12.6159428 C16.1713963,12.5841269 16.1713963,12.520495 16.2032122,12.488679 C16.2350282,12.4568631 16.2350282,12.3932312 16.2350282,12.3614152 C16.2350282,12.3295993 16.2668441,12.2977834 16.2668441,12.2341515 C16.2668441,12.1705196 16.2986601,12.0750717 16.2986601,12.0114398 C16.2986601,12.0114398 16.2986601,12.0114398 16.2986601,11.9796239 C16.2986601,11.915992 16.2986601,11.8205441 16.2668441,11.7569122 C16.2668441,11.7250963 16.2350282,11.6932803 16.2350282,11.6614644 C16.2350282,11.6296484 16.2032122,11.5660165 16.2032122,11.5342006 C16.1713963,11.5023846 16.1713963,11.4387527 16.1395803,11.4069368 C16.1077644,11.3751208 16.1077644,11.3433049 16.0759484,11.3114889 C16.0441325,11.247857 15.9805006,11.1842251 15.9168687,11.1205932 C15.9168687,11.1205932 15.9168687,11.1205932 15.9168687,11.0887773 L10.1740899,5.3778144 C9.67033733,4.87406187 8.88024126,4.87406187 8.37648873,5.3778144 C8.12196114,5.63234199 8,5.94519882 8,6.26335832 C8,6.58151781 8.1272638,6.89437464 8.37648873,7.14890224 L12.4277196,11.1789225 C12.8890509,11.6349511 12.8890509,12.3826259 12.4277196,12.8439571 L8.37648873,16.8739774 C8.12196114,17.128505 8,17.4413618 8,17.7595213 C8,18.0087462 8.07953987,18.2526685 8.23331696,18.4700775 C8.68934557,19.1223045 9.63852138,19.175331 10.2059058,18.6132493 Z" id="path-3"></path>
    </defs>
    <g id="CARD/Agenda/Proximos" stroke="none" stroke-width="1" fill="none" fill-rule="evenodd" transform="translate(-232.000000, -25.000000)">
        <g id="Group-2-Copy-4">
            <g id="Group-7" transform="translate(48.000000, 0.000000)">
                <mask id="mask-2" fill="white">
                    <use xlink:href="#path-1"></use>
                </mask>
                <use id="Rectangle-2-Copy-3" fill-opacity="0.8" fill="#E6EEEE" opacity="0.8" xlink:href="#path-1"></use>
            </g>
            <g id="ICON/Arrow/Right" transform="translate(224.000000, 20.000000)">
                <mask id="mask-4" fill="white">
                    <use xlink:href="#path-3"></use>
                </mask>
                <use id="Shape" fill="#000000" fill-rule="nonzero" xlink:href="#path-3"></use>
                <g id="COLOR/Grey-2" mask="url(#mask-4)" fill="#97A4A4" fill-rule="evenodd">
                    <rect id="Rectangle-6" x="0" y="0" width="24" height="24"></rect>
                </g>
            </g>
        </g>
    </g>
</svg>