<?xml version="1.0" encoding="UTF-8"?>
<svg width="20px" height="21px" viewBox="0 0 20 21" version="1.1" xmlns="http://www.w3.org/2000/svg" xmlns:xlink="http://www.w3.org/1999/xlink">
    <!-- Generator: sketchtool 48.2 (47327) - http://www.bohemiancoding.com/sketch -->
    <title>CE7EB8A8-B629-4F4D-8A56-253C96B174DA</title>
    <desc>Created with sketchtool.</desc>
    <defs>
        <path d="M19.3671498,4.70531401 L16.6618357,4.70531401 L16.6618357,2.70048309 C16.6618357,2.31400966 16.3478261,2 15.9613527,2 C15.5748792,2 15.2608696,2.31400966 15.2608696,2.70048309 L15.2608696,4.70531401 L8.73913043,4.70531401 L8.73913043,2.70048309 C8.73913043,2.31400966 8.42512077,2 8.03864734,2 C7.65217391,2 7.33816425,2.31400966 7.33816425,2.70048309 L7.33816425,4.70531401 L4.63285024,4.70531401 C3.18357488,4.70531401 2,5.88888889 2,7.33816425 L2,19.7536232 C2,21.2028986 3.18357488,22.3864734 4.63285024,22.3864734 L19.3671498,22.3864734 C20.8164251,22.3864734 22,21.2028986 22,19.7536232 L22,7.33816425 C22,5.88888889 20.8164251,4.70531401 19.3671498,4.70531401 Z M4.63285024,6.10628019 L7.33816425,6.10628019 L7.33816425,7.07246377 C7.33816425,7.4589372 7.65217391,7.77294686 8.03864734,7.77294686 C8.42512077,7.77294686 8.73913043,7.4589372 8.73913043,7.07246377 L8.73913043,6.10628019 L15.236715,6.10628019 L15.236715,7.07246377 C15.236715,7.4589372 15.5507246,7.77294686 15.9371981,7.77294686 C16.3236715,7.77294686 16.6376812,7.4589372 16.6376812,7.07246377 L16.6376812,6.10628019 L19.3429952,6.10628019 C20.0193237,6.10628019 20.5748792,6.66183575 20.5748792,7.33816425 L20.5748792,9.68115942 L3.40096618,9.68115942 L3.40096618,7.33816425 C3.40096618,6.66183575 3.95652174,6.10628019 4.63285024,6.10628019 Z M19.3671498,20.9855072 L4.63285024,20.9855072 C3.95652174,20.9855072 3.40096618,20.4299517 3.40096618,19.7536232 L3.40096618,11.1062802 L20.5990338,11.1062802 L20.5990338,19.7536232 C20.5990338,20.4299517 20.0434783,20.9855072 19.3671498,20.9855072 Z M7.38647343,12.1207729 C6.03381643,12.1207729 4.92270531,13.2318841 4.92270531,14.5603865 C4.92270531,15.8888889 6.03381643,17 7.38647343,17 C8.73913043,17 9.82608696,15.9371981 9.82608696,14.5845411 C9.82608696,13.2318841 8.73913043,12.1207729 7.38647343,12.1207729 Z M7.38647343,15.6231884 C6.80676329,15.6231884 6.34782609,15.1400966 6.34782609,14.5603865 C6.34782609,13.9806763 6.83091787,13.4975845 7.38647343,13.4975845 C7.94202899,13.4975845 8.42512077,13.9806763 8.42512077,14.5603865 C8.42512077,15.1400966 7.96618357,15.6231884 7.38647343,15.6231884 Z M8.42512077,18.0628019 L6.3236715,18.0628019 C5.93719807,18.0628019 5.62318841,18.3768116 5.62318841,18.763285 C5.62318841,19.1497585 5.93719807,19.4637681 6.3236715,19.4637681 L8.42512077,19.4637681 C8.8115942,19.4637681 9.12560386,19.1497585 9.12560386,18.763285 C9.12560386,18.3768116 8.8115942,18.0628019 8.42512077,18.0628019 Z M13.4009662,18.0628019 L11.2995169,18.0628019 C10.9130435,18.0628019 10.5990338,18.3768116 10.5990338,18.763285 C10.5990338,19.1497585 10.9130435,19.4637681 11.2995169,19.4637681 L13.4009662,19.4637681 C13.7874396,19.4637681 14.1014493,19.1497585 14.1014493,18.763285 C14.1014493,18.3768116 13.7874396,18.0628019 13.4009662,18.0628019 Z M13.4009662,13.884058 L11.2995169,13.884058 C10.9130435,13.884058 10.5990338,14.1980676 10.5990338,14.5845411 C10.5990338,14.9710145 10.9130435,15.2850242 11.2995169,15.2850242 L13.4009662,15.2850242 C13.7874396,15.2850242 14.1014493,14.9710145 14.1014493,14.5845411 C14.1014493,14.1980676 13.7874396,13.884058 13.4009662,13.884058 Z M18.3768116,18.0628019 L16.2753623,18.0628019 C15.8888889,18.0628019 15.5748792,18.3768116 15.5748792,18.763285 C15.5748792,19.1497585 15.8888889,19.4637681 16.2753623,19.4637681 L18.3768116,19.4637681 C18.763285,19.4637681 19.0772947,19.1497585 19.0772947,18.763285 C19.0772947,18.3768116 18.763285,18.0628019 18.3768116,18.0628019 Z M18.3768116,13.884058 L16.2753623,13.884058 C15.8888889,13.884058 15.5748792,14.1980676 15.5748792,14.5845411 C15.5748792,14.9710145 15.8888889,15.2850242 16.2753623,15.2850242 L18.3768116,15.2850242 C18.763285,15.2850242 19.0772947,14.9710145 19.0772947,14.5845411 C19.0772947,14.1980676 18.763285,13.884058 18.3768116,13.884058 Z" id="path-1"></path>
    </defs>
    <g id="MENU/Home" stroke="none" stroke-width="1" fill="none" fill-rule="evenodd" transform="translate(-86.000000, -12.000000)">
        <rect id="Rectangle-2-Copy-2" fill="#FFFFFF" x="0" y="0" width="320" height="56"></rect>
        <text id="AGENDA" opacity="0.6" font-family="Roboto-Medium, Roboto" font-size="8" font-weight="400" line-spacing="24" fill="#424B4B">
            <tspan x="80.3203125" y="37">AGENDA</tspan>
        </text>
        <g id="ICON/Menu/Agenda" opacity="0.6" transform="translate(84.000000, 10.000000)">
            <mask id="mask-2" fill="white">
                <use xlink:href="#path-1"></use>
            </mask>
            <use id="Combined-Shape" fill="#000000" fill-rule="nonzero" xlink:href="#path-1"></use>
            <g id="COLOR/Grey-2" mask="url(#mask-2)" fill="#97A4A4" fill-rule="evenodd">
                <rect id="Rectangle-6" x="0" y="0" width="24" height="24"></rect>
            </g>
        </g>
    </g>
</svg>