<?xml version="1.0" encoding="UTF-8"?>
<svg width="24px" height="18px" viewBox="0 0 24 18" version="1.1" xmlns="http://www.w3.org/2000/svg" xmlns:xlink="http://www.w3.org/1999/xlink">
    <!-- Generator: sketchtool 48.2 (47327) - http://www.bohemiancoding.com/sketch -->
    <title>898AE433-EDC1-48F1-B5BD-B038F1A496BB</title>
    <desc>Created with sketchtool.</desc>
    <defs>
        <path d="M14.1648,15.80736 L11.52,15.14688 L11.41344,14.7216 C13.224,14.39712 14.16384,13.85088 14.20608,13.82592 C14.34144,13.74624 14.42592,13.60224 14.43744,13.44576 C14.44896,13.28928 14.37888,13.13376 14.25696,13.03488 C14.24448,13.02528 13.02336,11.99616 13.02336,8.44704 C13.02336,5.30304 12.26496,3.70944 10.76928,3.70944 L10.60992,3.70944 C10.10304,3.22752 9.6816,3 8.64,3 C7.2672,3 4.2576,4.37184 4.2576,8.44704 C4.2576,11.99616 3.03552,13.02528 3.03072,13.03008 C2.90208,13.12512 2.83104,13.27872 2.83872,13.43808 C2.84736,13.59744 2.93376,13.7424 3.07104,13.82496 C3.11328,13.85088 4.04448,14.40096 5.86656,14.72448 L5.76096,15.14688 L3.11616,15.80832 C1.28064,16.26624 0,17.90784 0,19.8 C0,19.92768 0.04992,20.05056 0.14016,20.13984 C0.2304,20.22912 0.35328,20.28 0.48,20.28 L16.8,20.27808 C17.06496,20.27808 17.28,20.06304 17.28,19.79808 C17.28,17.90784 15.99936,16.26624 14.1648,15.80736 Z M0.99648,19.31808 C1.1856,18.07776 2.09952,17.05152 3.34848,16.73856 L6.27264,16.008 C6.44448,15.9648 6.57984,15.8304 6.62208,15.65856 L6.92448,14.448 C6.95808,14.31552 6.93312,14.17632 6.85728,14.06304 C6.78048,13.95072 6.66048,13.87584 6.52512,13.85664 C5.39328,13.70016 4.58304,13.44 4.0992,13.248 C4.57728,12.55584 5.2176,11.12736 5.2176,8.44704 C5.2176,4.75872 7.96032,3.96 8.64,3.96 C9.46848,3.96 9.63264,4.08768 10.07328,4.52928 C10.16352,4.61856 10.28544,4.66944 10.41312,4.66944 L10.76832,4.66944 C11.59104,4.66944 12.0624,6.04704 12.0624,8.44704 C12.0624,11.12544 12.70176,12.55392 13.17888,13.24608 C12.69312,13.43808 11.88,13.69728 10.75392,13.85568 C10.61952,13.87392 10.49856,13.94976 10.42272,14.06208 C10.34688,14.17536 10.32192,14.31456 10.35552,14.44704 L10.65792,15.65952 C10.70112,15.83136 10.83552,15.96672 11.00736,16.00896 L13.93152,16.73952 C15.17952,17.05152 16.09344,18.07872 16.28352,19.32 L0.99648,19.31808 Z M21.3487186,14.17248 C22.6111186,14.48832 23.4933586,15.61728 23.4933586,16.91904 C23.4933586,17.184 23.2783186,17.39904 23.0133586,17.39904 L17.6123986,17.40192 L17.6123986,16.44192 L22.4719186,16.44192 C22.3010386,15.79392 21.7912786,15.27456 21.1163986,15.1056 L19.2242386,14.63232 C19.0523986,14.59008 18.9179986,14.45472 18.8747986,14.28288 L18.6587986,13.4208 C18.6155986,13.248 18.6712786,13.0656 18.8037586,12.94752 C19.2376786,12.55872 19.5362386,11.95584 19.5813586,11.37504 C19.6015186,11.12544 19.8098386,10.93248 20.0603986,10.93248 L20.1775186,10.032 C20.0469586,10.03104 19.9336786,9.9888 19.8434386,9.8928 C19.7541586,9.79776 19.7176786,9.68352 19.7234386,9.55296 L19.7791186,8.40384 C19.7848786,8.2848 19.8347986,8.17248 19.9192786,8.088 L20.1487186,7.85856 C20.2159186,7.78656 20.3224786,7.67328 20.0863186,7.31328 C19.8789586,6.99552 19.5045586,6.84192 18.9410386,6.84192 C18.6587986,6.84192 18.0703186,6.84192 17.5538386,7.21152 C17.4741586,7.26912 17.3771986,7.29984 17.2792786,7.3008 C16.5544786,7.30752 16.0811986,7.44096 15.8719186,7.69728 C15.8287186,7.8096 15.7768786,7.92 15.7211986,8.02944 C15.6991186,8.14272 15.6885586,8.27328 15.6885586,8.42784 C15.6885586,8.616 15.7528786,9.19488 15.7931986,9.51552 C15.8104786,9.6528 15.7682386,9.79008 15.6770386,9.8928 C15.5858386,9.99648 15.4552786,10.05504 15.3170386,10.05504 L15.4053586,10.94976 C15.6559186,10.94976 15.9179986,11.12352 15.9381586,11.37312 C15.9832786,11.94528 16.2607186,12.52128 16.6811986,12.91488 C16.8079186,13.03392 16.8607186,13.21248 16.8184786,13.38144 L16.5938386,14.28192 C16.5515986,14.45376 16.4162386,14.58816 16.2443986,14.63136 C16.0159522,14.6852377 15.874209,14.7230565 15.819169,14.7448165 C15.574369,14.8427365 15.294049,14.7256165 15.194209,14.4788965 C15.095329,14.2331365 15.214369,13.9537765 15.460129,13.8539365 C15.541409,13.8212965 15.6322722,13.7933977 15.7327186,13.77024 L15.8229586,13.40736 C15.4283986,12.96096 15.1480786,12.39456 15.0319186,11.80992 C14.7122386,11.67936 14.4952786,11.40288 14.4530386,11.06784 L14.3378386,10.15008 C14.3042386,9.8832 14.3877586,9.61344 14.5653586,9.41184 C14.6315986,9.33696 14.7083986,9.2736 14.7919186,9.22464 C14.7611986,8.94816 14.7285586,8.60448 14.7285586,8.42688 C14.7285586,8.17152 14.7515986,7.95072 14.7986386,7.75296 C14.8082386,7.7136 14.8216786,7.6752 14.8408786,7.63968 C14.8984786,7.53024 14.9512786,7.41984 14.9925586,7.30464 C15.0059986,7.26624 15.0251986,7.2288 15.0482386,7.1952 C15.4159186,6.65568 16.0955986,6.37536 17.1237586,6.34272 C17.8533586,5.88 18.6088786,5.88 18.9419986,5.88 C20.0623186,5.88 20.6210386,6.37248 20.8907986,6.78528 C21.4562386,7.64928 21.1010386,8.2464 20.8389586,8.52576 L20.7304786,8.63424 L20.7007186,9.24 C20.7775186,9.288 20.8466386,9.34752 20.9071186,9.41664 C21.0818386,9.61728 21.1634386,9.88416 21.1298386,10.14912 L21.0146386,11.06688 C20.9743186,11.39136 20.7698386,11.66112 20.4914386,11.79552 C20.3733586,12.40608 20.0767186,12.9936 19.6562386,13.45056 L19.7359186,13.76928 L21.3487186,14.17248 Z" id="path-1"></path>
    </defs>
    <g id="MENU/Home" stroke="none" stroke-width="1" fill="none" fill-rule="evenodd" transform="translate(-148.000000, -13.000000)">
        <rect id="Rectangle-2-Copy-2" fill="#FFFFFF" x="0" y="0" width="320" height="56"></rect>
        <text id="CLIENTES" opacity="0.6" font-family="Roboto-Medium, Roboto" font-size="8" font-weight="400" line-spacing="24" fill="#424B4B">
            <tspan x="141.947266" y="37">CLIENTES</tspan>
        </text>
        <g id="ICON/Menu/Clientes" opacity="0.6" transform="translate(148.000000, 10.000000)">
            <mask id="mask-2" fill="white">
                <use xlink:href="#path-1"></use>
            </mask>
            <use id="Combined-Shape" fill="#97A4A4" fill-rule="nonzero" xlink:href="#path-1"></use>
            <g id="COLOR/Grey-2" mask="url(#mask-2)" fill="#97A4A4" fill-rule="evenodd">
                <rect id="Rectangle-6" x="0" y="0" width="24" height="24"></rect>
            </g>
        </g>
    </g>
</svg>